{"status":true,"msg":"done","data":{"seoOnPage":{"og_type":"website","titleHead":"Phim b\u1ed9 | Phim b\u1ed9 hay tuy\u1ec3n ch\u1ecdn | Phim b\u1ed9 m\u1edbi nh\u1ea5t 2025","descriptionHead":"Phim b\u1ed9 m\u1edbi nh\u1ea5t tuy\u1ec3n ch\u1ecdn ch\u1ea5t l\u01b0\u1ee3ng cao, phim b\u1ed9 tr\u1ecdn b\u1ed9 vietsub c\u1eadp nh\u1eadt nhanh nh\u1ea5t. Phim b\u1ed9 vietsub nhanh nh\u1ea5t","og_image":["\/upload\/vod\/20251013-1\/768af16e154b1c99bcef2b4c5ec43750.jpg","\/upload\/vod\/20251115-1\/ba88e3f37bfb0a7c40e286b3948fecf1.jpg","\/upload\/vod\/20251012-1\/d4699ed181d717215a974193527143e4.jpg","\/upload\/vod\/20251026-1\/043471199080589b7f41288758a36b14.jpg","\/upload\/vod\/20251102-1\/25d952621da1f9f6ac4df556acef5d26.jpg","\/upload\/vod\/20251116-1\/c933024f559624524479d0840cb56b06.jpg","\/upload\/vod\/20251116-1\/1dfa124b40b4c2cc708df151fcc67268.jpg","\/upload\/vod\/20251116-1\/1ab0292dba1816075e1d0d8d7f1705ef.jpg","\/upload\/vod\/20251116-1\/6dce7def695f9ee63b0183ad624da89b.jpg","\/upload\/vod\/20251024-1\/3507894ec4571721a2ca503cf1b78623.jpg","\/upload\/vod\/20251116-1\/6f4327f5cfa3a7ae0abad184a91497fd.jpg","\/upload\/vod\/20251031-1\/f4e47ece885b4c1caea891e56e0a7ef5.jpg","\/upload\/vod\/20251116-1\/2d5fb1914036a017537e9d5132111e17.jpg","\/upload\/vod\/20251019-1\/8a354476b2e7dd7828d40f4e8843e773.jpg","\/upload\/vod\/20251019-1\/c3f4bf39af712fa655269b592b5cf5be.jpg","\/upload\/vod\/20251109-1\/5781527777b542b1baa40f57e5e02caa.jpg","\/upload\/vod\/20251113-1\/a0da2bb447f07d35a29b8ad2952cb624.jpg","\/upload\/vod\/20251106-1\/bb0588a5a90d4bb0659b2638e5964205.jpg","\/upload\/vod\/20251116-1\/26c5e0c8db7127c0f09edd045beb56aa.jpg","\/upload\/vod\/20251116-1\/e053d0092911a148b6fbaec3194725bf.jpg"],"og_url":"danh-sach\/phim-bo"},"breadCrumb":[{"name":"Phim B\u1ed9","slug":"\/danh-sach\/phim-bo","isCurrent":false,"position":2},{"name":"Trang 1","isCurrent":true,"position":3}],"titlePage":"Phim B\u1ed9","items":[{"tmdb":{"type":"tv","id":"297517","season":1,"vote_average":0,"vote_count":0},"imdb":{"id":null},"created":{"time":"2025-10-13T17:33:41.000Z"},"modified":{"time":"2025-11-16T23:35:12.000Z"},"_id":"a2be3baee3bcf8792aab206b21ad7f69","name":"Gia T\u1ed9c Huy Ho\u00e0ng","slug":"gia-toc-huy-hoang","origin_name":"The Royal Family","type":"series","poster_url":"upload\/vod\/20251013-1\/768af16e154b1c99bcef2b4c5ec43750.jpg","thumb_url":"upload\/vod\/20251013-1\/04736f37c3ec481379ca4313df81a350.jpg","sub_docquyen":false,"chieurap":false,"time":"59 ph\u00fat\/t\u1eadp","episode_current":"T\u1eadp 6","quality":"FHD","lang":"Vietsub","year":2025,"category":[{"id":"37a7b38b6184a5ebd3c43015aa20709d","name":"Ch\u00ednh K\u1ecbch","slug":"chinh-kich"},{"id":"a7b065b92ad356387ef2e075dee66529","name":"T\u00e2m L\u00fd","slug":"tam-ly"}],"country":[{"id":"d4097fbffa8f7149a61281437171eb83","name":"Nh\u1eadt B\u1ea3n","slug":"nhat-ban"}]},{"tmdb":{"type":"tv","id":"271015","season":1,"vote_average":0,"vote_count":0},"imdb":{"id":null},"created":{"time":"2025-11-15T15:16:27.000Z"},"modified":{"time":"2025-11-16T23:27:20.000Z"},"_id":"436c26abd464041efd354bc550f76482","name":"Ph\u01b0\u1ee3ng Ho\u00e0ng \u0110\u00e0i Th\u01b0\u1ee3ng","slug":"phuong-hoang-dai-thuong","origin_name":"Love And Crown","type":"series","poster_url":"upload\/vod\/20251115-1\/ba88e3f37bfb0a7c40e286b3948fecf1.jpg","thumb_url":"upload\/vod\/20251115-1\/6de7ff42bbede5b0d2b8dfa5b9215bac.jpg","sub_docquyen":false,"chieurap":false,"time":"45 ph\u00fat\/t\u1eadp","episode_current":"T\u1eadp 8","quality":"FHD","lang":"Vietsub + Thuy\u1ebft Minh","year":2025,"category":[{"id":"37a7b38b6184a5ebd3c43015aa20709d","name":"Ch\u00ednh K\u1ecbch","slug":"chinh-kich"},{"id":"3a17c7283b71fa84e5a8d76fb790ed3e","name":"C\u1ed5 Trang","slug":"co-trang"},{"id":"a7b065b92ad356387ef2e075dee66529","name":"T\u00e2m L\u00fd","slug":"tam-ly"},{"id":"66c78b23908113d478d8d85390a244b4","name":"Phi\u00eau L\u01b0u","slug":"phieu-luu"}],"country":[{"id":"3e075636c731fe0f889c69e0bf82c083","name":"Trung Qu\u1ed1c","slug":"trung-quoc"}]},{"tmdb":{"type":"tv","id":"280946","season":1,"vote_average":0,"vote_count":0},"imdb":{"id":null},"created":{"time":"2025-10-11T23:50:45.000Z"},"modified":{"time":"2025-11-16T23:26:15.000Z"},"_id":"8074ea1e919ed5dc154c7fe6f1a2e212","name":"Gia \u0110\u00ecnh B\u00e3o T\u1ed1","slug":"gia-dinh-bao-to-2025","origin_name":"Typhoon Family","type":"series","poster_url":"upload\/vod\/20251012-1\/d4699ed181d717215a974193527143e4.jpg","thumb_url":"upload\/vod\/20251012-1\/a9db72672fdad74eb490d763bd92ecfa.jpg","sub_docquyen":false,"chieurap":false,"time":"76 ph\u00fat\/t\u1eadp","episode_current":"T\u1eadp 12","quality":"FHD","lang":"Vietsub + Thuy\u1ebft Minh","year":2025,"category":[{"id":"37a7b38b6184a5ebd3c43015aa20709d","name":"Ch\u00ednh K\u1ecbch","slug":"chinh-kich"},{"id":"bb2b4b030608ca5984c8dd0770f5b40b","name":"T\u00ecnh C\u1ea3m","slug":"tinh-cam"},{"id":"a7b065b92ad356387ef2e075dee66529","name":"T\u00e2m L\u00fd","slug":"tam-ly"}],"country":[{"id":"05de95be5fc404da9680bbb3dd8262e6","name":"H\u00e0n Qu\u1ed1c","slug":"han-quoc"}]},{"tmdb":{"type":"tv","id":"275592","season":1,"vote_average":0,"vote_count":1},"imdb":{"id":null},"created":{"time":"2025-10-26T09:43:14.000Z"},"modified":{"time":"2025-11-16T23:22:21.000Z"},"_id":"f72ce9098bc2b98030ed78319d60be6e","name":"Cu\u1ed9c S\u1ed1ng Trong M\u01a1 C\u1ee7a \u00d4ng Kim","slug":"cuoc-song-trong-mo-cua-ong-kim","origin_name":"The Dream Life Of Mr. Kim","type":"series","poster_url":"upload\/vod\/20251026-1\/043471199080589b7f41288758a36b14.jpg","thumb_url":"upload\/vod\/20251026-1\/9517134fd5b31de053da66201f3e7d53.jpg","sub_docquyen":false,"chieurap":false,"time":"72 ph\u00fat\/t\u1eadp","episode_current":"T\u1eadp 8","quality":"FHD","lang":"Vietsub","year":2025,"category":[{"id":"ba6fd52e5a3aca80eaaf1a3b50a182db","name":"H\u00e0i H\u01b0\u1edbc","slug":"hai-huoc"},{"id":"37a7b38b6184a5ebd3c43015aa20709d","name":"Ch\u00ednh K\u1ecbch","slug":"chinh-kich"},{"id":"bb2b4b030608ca5984c8dd0770f5b40b","name":"T\u00ecnh C\u1ea3m","slug":"tinh-cam"},{"id":"a7b065b92ad356387ef2e075dee66529","name":"T\u00e2m L\u00fd","slug":"tam-ly"}],"country":[{"id":"05de95be5fc404da9680bbb3dd8262e6","name":"H\u00e0n Qu\u1ed1c","slug":"han-quoc"}]},{"tmdb":{"type":"tv","id":"261902","season":1,"vote_average":0,"vote_count":0},"imdb":{"id":null},"created":{"time":"2025-11-02T16:16:06.000Z"},"modified":{"time":"2025-11-16T23:22:01.000Z"},"_id":"01efe0c4fb62ade937afa0bdf2ea0844","name":"M\u00f9a H\u1ea1 Cu\u1ed1i (Anh \u0110\u1ebfn C\u00f9ng M\u00f9a H\u1ea1)","slug":"mua-ha-cuoi-anh-den-cung-mua-ha","origin_name":"Last Summer","type":"series","poster_url":"upload\/vod\/20251102-1\/25d952621da1f9f6ac4df556acef5d26.jpg","thumb_url":"upload\/vod\/20251102-1\/7527483baa1df00f8aaf83faae534b77.jpg","sub_docquyen":false,"chieurap":false,"time":"70 ph\u00fat\/t\u1eadp","episode_current":"T\u1eadp 6","quality":"FHD","lang":"Vietsub + Thuy\u1ebft Minh","year":2025,"category":[{"id":"37a7b38b6184a5ebd3c43015aa20709d","name":"Ch\u00ednh K\u1ecbch","slug":"chinh-kich"},{"id":"ba6fd52e5a3aca80eaaf1a3b50a182db","name":"H\u00e0i H\u01b0\u1edbc","slug":"hai-huoc"},{"id":"bb2b4b030608ca5984c8dd0770f5b40b","name":"T\u00ecnh C\u1ea3m","slug":"tinh-cam"},{"id":"a7b065b92ad356387ef2e075dee66529","name":"T\u00e2m L\u00fd","slug":"tam-ly"}],"country":[{"id":"05de95be5fc404da9680bbb3dd8262e6","name":"H\u00e0n Qu\u1ed1c","slug":"han-quoc"}]},{"tmdb":{"type":"tv","id":"71790","season":8,"vote_average":8.055,"vote_count":1514},"imdb":{"id":null},"created":{"time":"2025-11-16T15:25:56.000Z"},"modified":{"time":"2025-11-16T20:50:13.000Z"},"_id":"9c5a8459378e1485355e2cb93522e311","name":"\u0110\u1ed9i \u0110\u1eb7c Nhi\u1ec7m SWAT (Ph\u1ea7n 1)","slug":"doi-dac-nhiem-swat-phan-1","origin_name":"S.W.A.T. (Season 1)","type":"series","poster_url":"upload\/vod\/20251116-1\/c933024f559624524479d0840cb56b06.jpg","thumb_url":"upload\/vod\/20251116-1\/f472c18d7ef84211ab6e7571ea515486.jpg","sub_docquyen":false,"chieurap":false,"time":"44 ph\u00fat\/t\u1eadp","episode_current":"Ho\u00e0n T\u1ea5t (22\/22)","quality":"FHD","lang":"Vietsub","year":2017,"category":[{"id":"7a035ac0b37f5854f0f6979260899c90","name":"H\u00ecnh S\u1ef1","slug":"hinh-su"},{"id":"9822be111d2ccc29c7172c78b8af8ff5","name":"H\u00e0nh \u0110\u1ed9ng","slug":"hanh-dong"},{"id":"66c78b23908113d478d8d85390a244b4","name":"Phi\u00eau L\u01b0u","slug":"phieu-luu"},{"id":"37a7b38b6184a5ebd3c43015aa20709d","name":"Ch\u00ednh K\u1ecbch","slug":"chinh-kich"},{"id":"a7b065b92ad356387ef2e075dee66529","name":"T\u00e2m L\u00fd","slug":"tam-ly"}],"country":[{"id":"74d9fa92f4dea9ecea8fc2233dc7921a","name":"\u00c2u M\u1ef9","slug":"au-my"}]},{"tmdb":{"type":"tv","id":"87508","season":3,"vote_average":7.836,"vote_count":113},"imdb":{"id":null},"created":{"time":"2025-11-16T17:59:25.000Z"},"modified":{"time":"2025-11-16T17:59:25.000Z"},"_id":"c1481a88d8e582ce58f9413d5ac93360","name":"T\u1ed9i \u00c1c Delhi (Ph\u1ea7n 3)","slug":"toi-ac-delhi-phan-3","origin_name":"Delhi Crime","type":"series","poster_url":"upload\/vod\/20251116-1\/1dfa124b40b4c2cc708df151fcc67268.jpg","thumb_url":"upload\/vod\/20251116-1\/35e314c4706f713aba8692e6b113a37a.jpg","sub_docquyen":false,"chieurap":false,"time":"51 ph\u00fat\/t\u1eadp","episode_current":"Ho\u00e0n T\u1ea5t (6\/6)","quality":"FHD","lang":"Vietsub","year":2025,"category":[{"id":"7a035ac0b37f5854f0f6979260899c90","name":"H\u00ecnh S\u1ef1","slug":"hinh-su"},{"id":"37a7b38b6184a5ebd3c43015aa20709d","name":"Ch\u00ednh K\u1ecbch","slug":"chinh-kich"},{"id":"a7b065b92ad356387ef2e075dee66529","name":"T\u00e2m L\u00fd","slug":"tam-ly"}],"country":[{"id":"445d337b5cd5de476f99333df6b0c2a7","name":"Canada","slug":"canada"},{"id":"aadd510492662beef1a980624b26c685","name":"\u1ea4n \u0110\u1ed9","slug":"an-do"},{"id":"74d9fa92f4dea9ecea8fc2233dc7921a","name":"\u00c2u M\u1ef9","slug":"au-my"}]},{"tmdb":{"type":"tv","id":"87508","season":3,"vote_average":7.836,"vote_count":113},"imdb":{"id":null},"created":{"time":"2023-12-07T22:00:26.000Z"},"modified":{"time":"2025-11-16T17:58:04.000Z"},"_id":"687fe34a901a03abed262a62e22f90db","name":"T\u1ed9i \u00c1c Delhi (Ph\u1ea7n 2)","slug":"toi-ac-delhi-phan-2","origin_name":"Delhi Crime (Season 2)","type":"series","poster_url":"upload\/vod\/20251116-1\/1ab0292dba1816075e1d0d8d7f1705ef.jpg","thumb_url":"upload\/vod\/20251116-1\/982a06b94a9055c86df51555c33d8bab.jpg","sub_docquyen":false,"chieurap":false,"time":"51 ph\u00fat\/t\u1eadp","episode_current":"Ho\u00e0n T\u1ea5t (5\/5)","quality":"FHD","lang":"Vietsub","year":2022,"category":[{"id":"7a035ac0b37f5854f0f6979260899c90","name":"H\u00ecnh S\u1ef1","slug":"hinh-su"},{"id":"a7b065b92ad356387ef2e075dee66529","name":"T\u00e2m L\u00fd","slug":"tam-ly"},{"id":"37a7b38b6184a5ebd3c43015aa20709d","name":"Ch\u00ednh K\u1ecbch","slug":"chinh-kich"}],"country":[{"id":"445d337b5cd5de476f99333df6b0c2a7","name":"Canada","slug":"canada"},{"id":"aadd510492662beef1a980624b26c685","name":"\u1ea4n \u0110\u1ed9","slug":"an-do"},{"id":"74d9fa92f4dea9ecea8fc2233dc7921a","name":"\u00c2u M\u1ef9","slug":"au-my"}]},{"tmdb":{"type":"tv","id":"87508","season":3,"vote_average":7.836,"vote_count":113},"imdb":{"id":null},"created":{"time":"2025-01-16T00:47:24.000Z"},"modified":{"time":"2025-11-16T17:56:27.000Z"},"_id":"358eabeadbcb172e3e49ac722b445fea","name":"T\u1ed9i \u00c1c Delhi (Ph\u1ea7n 1)","slug":"toi-ac-delhi-phan-1","origin_name":"Delhi Crime (Season 1)","type":"series","poster_url":"upload\/vod\/20251116-1\/6dce7def695f9ee63b0183ad624da89b.jpg","thumb_url":"upload\/vod\/20251116-1\/9a11e8b870ab6682d12768d24ba20bb2.jpg","sub_docquyen":false,"chieurap":false,"time":"51 ph\u00fat\/t\u1eadp","episode_current":"Ho\u00e0n T\u1ea5t (7\/7)","quality":"FHD","lang":"Vietsub","year":2019,"category":[{"id":"7a035ac0b37f5854f0f6979260899c90","name":"H\u00ecnh S\u1ef1","slug":"hinh-su"},{"id":"a7b065b92ad356387ef2e075dee66529","name":"T\u00e2m L\u00fd","slug":"tam-ly"},{"id":"37a7b38b6184a5ebd3c43015aa20709d","name":"Ch\u00ednh K\u1ecbch","slug":"chinh-kich"}],"country":[{"id":"445d337b5cd5de476f99333df6b0c2a7","name":"Canada","slug":"canada"},{"id":"aadd510492662beef1a980624b26c685","name":"\u1ea4n \u0110\u1ed9","slug":"an-do"},{"id":"74d9fa92f4dea9ecea8fc2233dc7921a","name":"\u00c2u M\u1ef9","slug":"au-my"}]},{"tmdb":{"type":"tv","id":"252414","season":1,"vote_average":0,"vote_count":0},"imdb":{"id":null},"created":{"time":"2025-10-24T17:29:35.000Z"},"modified":{"time":"2025-11-16T17:52:15.000Z"},"_id":"c00e300d85cc5e5f0d11a782da9bf045","name":"Th\u1ee7y Long Ng\u00e2m","slug":"thuy-long-ngam","origin_name":"Whispers Of Fate","type":"series","poster_url":"upload\/vod\/20251024-1\/3507894ec4571721a2ca503cf1b78623.jpg","thumb_url":"upload\/vod\/20251024-1\/260919d2479aaaf19ce6ed9e70810683.jpg","sub_docquyen":false,"chieurap":false,"time":"47 ph\u00fat\/t\u1eadp","episode_current":"T\u1eadp 35","quality":"FHD","lang":"Vietsub + Thuy\u1ebft Minh","year":2025,"category":[{"id":"37a7b38b6184a5ebd3c43015aa20709d","name":"Ch\u00ednh K\u1ecbch","slug":"chinh-kich"},{"id":"2fb53017b3be83cd754a08adab3e916c","name":"B\u00ed \u1ea8n","slug":"bi-an"},{"id":"0bcf4077916678de9b48c89221fcf8ae","name":"Khoa H\u1ecdc","slug":"khoa-hoc"},{"id":"68564911f00849030f9c9c144ea1b931","name":"Vi\u1ec5n T\u01b0\u1edfng","slug":"vien-tuong"},{"id":"3a17c7283b71fa84e5a8d76fb790ed3e","name":"C\u1ed5 Trang","slug":"co-trang"},{"id":"a7b065b92ad356387ef2e075dee66529","name":"T\u00e2m L\u00fd","slug":"tam-ly"}],"country":[{"id":"92aa3c93de523a414a520399bb6a4304","name":"Trung Qu\u00f4\u0301c","slug":"trung-quoc"}]},{"tmdb":{"type":"tv","id":"271008","season":1,"vote_average":0,"vote_count":0},"imdb":{"id":null},"created":{"time":"2025-11-16T17:51:15.000Z"},"modified":{"time":"2025-11-16T17:51:15.000Z"},"_id":"68af3564fb6024e891d093f8c3b8bc42","name":"T\u00f4i L\u00e0m B\u1ea3o M\u1eabu \u1ede L\u00e3nh Cung","slug":"toi-lam-bao-mau-o-lanh-cung","origin_name":"Babysitter","type":"series","poster_url":"upload\/vod\/20251116-1\/6f4327f5cfa3a7ae0abad184a91497fd.jpg","thumb_url":"upload\/vod\/20251116-1\/83c7886a0557eb9b7f03a6922a21f1c0.jpg","sub_docquyen":false,"chieurap":false,"time":"13 ph\u00fat\/t\u1eadp","episode_current":"T\u1eadp 10","quality":"FHD","lang":"Vietsub","year":2025,"category":[{"id":"ba6fd52e5a3aca80eaaf1a3b50a182db","name":"H\u00e0i H\u01b0\u1edbc","slug":"hai-huoc"},{"id":"37a7b38b6184a5ebd3c43015aa20709d","name":"Ch\u00ednh K\u1ecbch","slug":"chinh-kich"},{"id":"3a17c7283b71fa84e5a8d76fb790ed3e","name":"C\u1ed5 Trang","slug":"co-trang"},{"id":"a7b065b92ad356387ef2e075dee66529","name":"T\u00e2m L\u00fd","slug":"tam-ly"}],"country":[{"id":"3e075636c731fe0f889c69e0bf82c083","name":"Trung Qu\u1ed1c","slug":"trung-quoc"}]},{"tmdb":{"type":"tv","id":"263044","season":1,"vote_average":0,"vote_count":0},"imdb":{"id":null},"created":{"time":"2025-10-31T04:33:31.000Z"},"modified":{"time":"2025-11-16T17:48:16.000Z"},"_id":"19f922993a891c3b0a87d7c85736533b","name":"S\u01a1n H\u00e0 Ch\u1ea9m","slug":"son-ha-cham","origin_name":"Fight For Love","type":"series","poster_url":"upload\/vod\/20251031-1\/f4e47ece885b4c1caea891e56e0a7ef5.jpg","thumb_url":"upload\/vod\/20251031-1\/1a406739694459675a62c8fb48f631c8.jpg","sub_docquyen":false,"chieurap":false,"time":"41 ph\u00fat\/t\u1eadp","episode_current":"T\u1eadp 35","quality":"FHD","lang":"Vietsub","year":2025,"category":[{"id":"37a7b38b6184a5ebd3c43015aa20709d","name":"Ch\u00ednh K\u1ecbch","slug":"chinh-kich"},{"id":"3a17c7283b71fa84e5a8d76fb790ed3e","name":"C\u1ed5 Trang","slug":"co-trang"},{"id":"a7b065b92ad356387ef2e075dee66529","name":"T\u00e2m L\u00fd","slug":"tam-ly"}],"country":[{"id":"3e075636c731fe0f889c69e0bf82c083","name":"Trung Qu\u1ed1c","slug":"trung-quoc"}]},{"tmdb":{"type":"tv","id":"305294","season":1,"vote_average":0,"vote_count":0},"imdb":{"id":null},"created":{"time":"2025-11-16T17:46:42.000Z"},"modified":{"time":"2025-11-16T17:46:42.000Z"},"_id":"1e067906fa07c8fbd7a3cb7952fe4ea1","name":"Nh\u1eadp M\u1ed9ng S\u01b0: Ph\u1ea5t Y V\u00e0 A Th\u1ea5t","slug":"nhap-mong-su-phat-y-va-a-that","origin_name":"The Dreamwalker","type":"series","poster_url":"upload\/vod\/20251116-1\/2d5fb1914036a017537e9d5132111e17.jpg","thumb_url":"upload\/vod\/20251116-1\/09a770fd5383384bac41fb0e20ede42d.jpg","sub_docquyen":false,"chieurap":false,"time":"12 ph\u00fat\/t\u1eadp","episode_current":"T\u1eadp 8","quality":"FHD","lang":"Vietsub","year":2025,"category":[{"id":"37a7b38b6184a5ebd3c43015aa20709d","name":"Ch\u00ednh K\u1ecbch","slug":"chinh-kich"},{"id":"3a17c7283b71fa84e5a8d76fb790ed3e","name":"C\u1ed5 Trang","slug":"co-trang"},{"id":"a7b065b92ad356387ef2e075dee66529","name":"T\u00e2m L\u00fd","slug":"tam-ly"}],"country":[{"id":"3e075636c731fe0f889c69e0bf82c083","name":"Trung Qu\u1ed1c","slug":"trung-quoc"}]},{"tmdb":{"type":"tv","id":"299800","season":1,"vote_average":9,"vote_count":3},"imdb":{"id":null},"created":{"time":"2025-10-19T17:33:53.000Z"},"modified":{"time":"2025-11-16T17:43:49.000Z"},"_id":"d012c46243d7e2391b64b221dfcc18e3","name":"N\u1ebfu Th\u1ebf Gi\u1edbi L\u00e0 S\u00e2n Kh\u1ea5u, V\u1eady H\u1eadu Tr\u01b0\u1eddng \u1ede \u0110\u00e2u","slug":"neu-the-gioi-la-san-khau-vay-hau-truong-o-dau","origin_name":"Pray Speak What Has Happened","type":"series","poster_url":"upload\/vod\/20251019-1\/8a354476b2e7dd7828d40f4e8843e773.jpg","thumb_url":"upload\/vod\/20251019-1\/e2c810d436e0bbf3f587143c37506fcc.jpg","sub_docquyen":false,"chieurap":false,"time":"67 ph\u00fat\/t\u1eadp","episode_current":"T\u1eadp 5","quality":"FHD","lang":"Vietsub","year":2025,"category":[{"id":"37a7b38b6184a5ebd3c43015aa20709d","name":"Ch\u00ednh K\u1ecbch","slug":"chinh-kich"},{"id":"bb2b4b030608ca5984c8dd0770f5b40b","name":"T\u00ecnh C\u1ea3m","slug":"tinh-cam"},{"id":"a7b065b92ad356387ef2e075dee66529","name":"T\u00e2m L\u00fd","slug":"tam-ly"}],"country":[{"id":"d4097fbffa8f7149a61281437171eb83","name":"Nh\u1eadt B\u1ea3n","slug":"nhat-ban"}]},{"tmdb":{"type":"tv","id":"299403","season":1,"vote_average":9,"vote_count":1},"imdb":{"id":null},"created":{"time":"2025-10-19T07:59:11.000Z"},"modified":{"time":"2025-11-16T17:42:58.000Z"},"_id":"51a4481447f563d89973aadd7e6cb95b","name":"M\u00e1i Nh\u00e0 \u0110\u00e3 Ch\u1ecdn","slug":"mai-nha-da-chon","origin_name":"Chosen Home","type":"series","poster_url":"upload\/vod\/20251019-1\/c3f4bf39af712fa655269b592b5cf5be.jpg","thumb_url":"upload\/vod\/20251019-1\/cf1822151dfc51990d4dbc628b5612b6.jpg","sub_docquyen":false,"chieurap":false,"time":"60 ph\u00fat\/t\u1eadp","episode_current":"T\u1eadp 5","quality":"FHD","lang":"Vietsub","year":2025,"category":[{"id":"37a7b38b6184a5ebd3c43015aa20709d","name":"Ch\u00ednh K\u1ecbch","slug":"chinh-kich"},{"id":"bb2b4b030608ca5984c8dd0770f5b40b","name":"T\u00ecnh C\u1ea3m","slug":"tinh-cam"},{"id":"a7b065b92ad356387ef2e075dee66529","name":"T\u00e2m L\u00fd","slug":"tam-ly"},{"id":"ba6fd52e5a3aca80eaaf1a3b50a182db","name":"H\u00e0i H\u01b0\u1edbc","slug":"hai-huoc"}],"country":[{"id":"d4097fbffa8f7149a61281437171eb83","name":"Nh\u1eadt B\u1ea3n","slug":"nhat-ban"}]},{"tmdb":{"type":"tv","id":"211089","season":3,"vote_average":8.1,"vote_count":31},"imdb":{"id":null},"created":{"time":"2025-11-09T08:00:02.000Z"},"modified":{"time":"2025-11-16T17:42:26.000Z"},"_id":"0fe044bad66866c2a880e6d7cb4a045a","name":"\u0110\u01b0\u1eddng Tri\u1ec1u Qu\u1ef7 S\u1ef1 L\u1ee5c 3 : Tr\u01b0\u1eddng An","slug":"duong-trieu-quy-su-luc-3-truong-an","origin_name":"Strange Tales Of Tang Dynasty 3 : To Changan","type":"series","poster_url":"upload\/vod\/20251109-1\/5781527777b542b1baa40f57e5e02caa.jpg","thumb_url":"upload\/vod\/20251109-1\/6432a0f1f3df4202b67382ad6f923006.jpg","sub_docquyen":false,"chieurap":false,"time":"45 ph\u00fat\/t\u1eadp","episode_current":"T\u1eadp 22","quality":"FHD","lang":"Vietsub + Thuy\u1ebft Minh","year":2025,"category":[{"id":"2fb53017b3be83cd754a08adab3e916c","name":"B\u00ed \u1ea8n","slug":"bi-an"},{"id":"7a035ac0b37f5854f0f6979260899c90","name":"H\u00ecnh S\u1ef1","slug":"hinh-su"},{"id":"37a7b38b6184a5ebd3c43015aa20709d","name":"Ch\u00ednh K\u1ecbch","slug":"chinh-kich"},{"id":"9822be111d2ccc29c7172c78b8af8ff5","name":"H\u00e0nh \u0110\u1ed9ng","slug":"hanh-dong"},{"id":"66c78b23908113d478d8d85390a244b4","name":"Phi\u00eau L\u01b0u","slug":"phieu-luu"},{"id":"3a17c7283b71fa84e5a8d76fb790ed3e","name":"C\u1ed5 Trang","slug":"co-trang"},{"id":"a7b065b92ad356387ef2e075dee66529","name":"T\u00e2m L\u00fd","slug":"tam-ly"}],"country":[{"id":"3e075636c731fe0f889c69e0bf82c083","name":"Trung Qu\u1ed1c","slug":"trung-quoc"}]},{"tmdb":{"type":"tv","id":"304451","season":1,"vote_average":0,"vote_count":0},"imdb":{"id":null},"created":{"time":"2025-11-13T21:51:03.000Z"},"modified":{"time":"2025-11-16T17:41:34.000Z"},"_id":"e7269f62ac39734ee9cfb1d0bd72cb06","name":"\u0110\u1ed9i C\u01a1 \u0110\u1ed9ng","slug":"doi-co-dong-2025","origin_name":"Police Tactical Unit","type":"series","poster_url":"upload\/vod\/20251113-1\/a0da2bb447f07d35a29b8ad2952cb624.jpg","thumb_url":"upload\/vod\/20251113-1\/7e0c0f784ead9bad53eb64075d9bd8f5.jpg","sub_docquyen":false,"chieurap":false,"time":"12 ph\u00fat\/t\u1eadp","episode_current":"T\u1eadp 18","quality":"FHD","lang":"Vietsub","year":2025,"category":[{"id":"37a7b38b6184a5ebd3c43015aa20709d","name":"Ch\u00ednh K\u1ecbch","slug":"chinh-kich"},{"id":"a7b065b92ad356387ef2e075dee66529","name":"T\u00e2m L\u00fd","slug":"tam-ly"},{"id":"66c78b23908113d478d8d85390a244b4","name":"Phi\u00eau L\u01b0u","slug":"phieu-luu"},{"id":"7a035ac0b37f5854f0f6979260899c90","name":"H\u00ecnh S\u1ef1","slug":"hinh-su"}],"country":[{"id":"3e075636c731fe0f889c69e0bf82c083","name":"Trung Qu\u1ed1c","slug":"trung-quoc"}]},{"tmdb":{"type":null,"id":null,"season":null,"vote_average":0,"vote_count":0},"imdb":{"id":null},"created":{"time":"2025-11-06T18:40:34.000Z"},"modified":{"time":"2025-11-16T17:40:55.000Z"},"_id":"5df66942fc13bbf265e17d1a3cb14b91","name":"B\u00ed \u1ea8n M\u1eaft N\u00e2u","slug":"bi-an-mat-nau","origin_name":"Blemish Flaw","type":"series","poster_url":"upload\/vod\/20251106-1\/bb0588a5a90d4bb0659b2638e5964205.jpg","thumb_url":"upload\/vod\/20251106-1\/3820b00a4d1e3c40133e382138be5af3.jpg","sub_docquyen":false,"chieurap":false,"time":"42 ph\u00fat\/t\u1eadp","episode_current":"Ho\u00e0n T\u1ea5t (16\/16)","quality":"FHD","lang":"Vietsub","year":2025,"category":[{"id":"37a7b38b6184a5ebd3c43015aa20709d","name":"Ch\u00ednh K\u1ecbch","slug":"chinh-kich"},{"id":"2fb53017b3be83cd754a08adab3e916c","name":"B\u00ed \u1ea8n","slug":"bi-an"},{"id":"a7b065b92ad356387ef2e075dee66529","name":"T\u00e2m L\u00fd","slug":"tam-ly"}],"country":[{"id":"3e075636c731fe0f889c69e0bf82c083","name":"Trung Qu\u1ed1c","slug":"trung-quoc"}]},{"tmdb":{"type":"tv","id":"71790","season":8,"vote_average":8.055,"vote_count":1514},"imdb":{"id":null},"created":{"time":"2025-11-16T15:41:15.000Z"},"modified":{"time":"2025-11-16T15:41:15.000Z"},"_id":"3058ef543ca71baa53a5b902acc37b71","name":"\u0110\u1ed9i \u0110\u1eb7c Nhi\u1ec7m SWAT (Ph\u1ea7n 5)","slug":"doi-dac-nhiem-swat-phan-5","origin_name":"S.W.A.T. (Season 5)","type":"series","poster_url":"upload\/vod\/20251116-1\/26c5e0c8db7127c0f09edd045beb56aa.jpg","thumb_url":"upload\/vod\/20251116-1\/aa928b2c9122652aab12dc4dcfbd5aa6.jpg","sub_docquyen":false,"chieurap":false,"time":"44 ph\u00fat\/t\u1eadp","episode_current":"Ho\u00e0n T\u1ea5t (22\/22)","quality":"FHD","lang":"Vietsub","year":2021,"category":[{"id":"7a035ac0b37f5854f0f6979260899c90","name":"H\u00ecnh S\u1ef1","slug":"hinh-su"},{"id":"9822be111d2ccc29c7172c78b8af8ff5","name":"H\u00e0nh \u0110\u1ed9ng","slug":"hanh-dong"},{"id":"66c78b23908113d478d8d85390a244b4","name":"Phi\u00eau L\u01b0u","slug":"phieu-luu"},{"id":"37a7b38b6184a5ebd3c43015aa20709d","name":"Ch\u00ednh K\u1ecbch","slug":"chinh-kich"},{"id":"a7b065b92ad356387ef2e075dee66529","name":"T\u00e2m L\u00fd","slug":"tam-ly"}],"country":[{"id":"74d9fa92f4dea9ecea8fc2233dc7921a","name":"\u00c2u M\u1ef9","slug":"au-my"}]},{"tmdb":{"type":"tv","id":"71790","season":8,"vote_average":8.055,"vote_count":1514},"imdb":{"id":null},"created":{"time":"2025-11-16T15:40:25.000Z"},"modified":{"time":"2025-11-16T15:40:25.000Z"},"_id":"abdd2931b521ccf6f0f80f7d6a540928","name":"\u0110\u1ed9i \u0110\u1eb7c Nhi\u1ec7m SWAT (Ph\u1ea7n 4)","slug":"doi-dac-nhiem-swat-phan-4","origin_name":"S.W.A.T. (Season 4)","type":"series","poster_url":"upload\/vod\/20251116-1\/e053d0092911a148b6fbaec3194725bf.jpg","thumb_url":"upload\/vod\/20251116-1\/e6960daa505bbd3f64458b6876d841c7.jpg","sub_docquyen":false,"chieurap":false,"time":"44 ph\u00fat\/t\u1eadp","episode_current":"Ho\u00e0n T\u1ea5t (18\/18)","quality":"FHD","lang":"Vietsub","year":2020,"category":[{"id":"7a035ac0b37f5854f0f6979260899c90","name":"H\u00ecnh S\u1ef1","slug":"hinh-su"},{"id":"9822be111d2ccc29c7172c78b8af8ff5","name":"H\u00e0nh \u0110\u1ed9ng","slug":"hanh-dong"},{"id":"66c78b23908113d478d8d85390a244b4","name":"Phi\u00eau L\u01b0u","slug":"phieu-luu"},{"id":"37a7b38b6184a5ebd3c43015aa20709d","name":"Ch\u00ednh K\u1ecbch","slug":"chinh-kich"},{"id":"a7b065b92ad356387ef2e075dee66529","name":"T\u00e2m L\u00fd","slug":"tam-ly"}],"country":[{"id":"74d9fa92f4dea9ecea8fc2233dc7921a","name":"\u00c2u M\u1ef9","slug":"au-my"}]}],"params":{"type_slug":"danh-sach","filterCategory":[""],"filterCountry":[""],"filterYear":[""],"filterType":[""],"sortField":"modified.time","sortType":"desc","pagination":{"totalItems":7294,"totalItemsPerPage":20,"currentPage":1,"totalPages":365}},"type_list":"phim-bo","APP_DOMAIN_FRONTEND":"https:\/\/phimapi.com","APP_DOMAIN_CDN_IMAGE":"https:\/\/phimimg.com"}}