{"status":true,"msg":"done","data":{"seoOnPage":{"og_type":"website","titleHead":"Phim b\u1ed9 | Phim b\u1ed9 hay tuy\u1ec3n ch\u1ecdn | Phim b\u1ed9 m\u1edbi nh\u1ea5t 2025","descriptionHead":"Phim b\u1ed9 m\u1edbi nh\u1ea5t tuy\u1ec3n ch\u1ecdn ch\u1ea5t l\u01b0\u1ee3ng cao, phim b\u1ed9 tr\u1ecdn b\u1ed9 vietsub c\u1eadp nh\u1eadt nhanh nh\u1ea5t. Phim b\u1ed9 vietsub nhanh nh\u1ea5t","og_image":["\/upload\/vod\/20251013-1\/768af16e154b1c99bcef2b4c5ec43750.jpg","\/upload\/vod\/20251115-1\/ba88e3f37bfb0a7c40e286b3948fecf1.jpg","\/upload\/vod\/20251012-1\/d4699ed181d717215a974193527143e4.jpg","\/upload\/vod\/20251026-1\/043471199080589b7f41288758a36b14.jpg","\/upload\/vod\/20251102-1\/25d952621da1f9f6ac4df556acef5d26.jpg"],"og_url":"danh-sach\/phim-bo"},"breadCrumb":[{"name":"Phim B\u1ed9","slug":"\/danh-sach\/phim-bo","isCurrent":false,"position":2},{"name":"Trang 1","isCurrent":true,"position":3}],"titlePage":"Phim B\u1ed9","items":[{"tmdb":{"type":"tv","id":"297517","season":1,"vote_average":0,"vote_count":0},"imdb":{"id":null},"created":{"time":"2025-10-13T17:33:41.000Z"},"modified":{"time":"2025-11-16T23:35:12.000Z"},"_id":"a2be3baee3bcf8792aab206b21ad7f69","name":"Gia T\u1ed9c Huy Ho\u00e0ng","slug":"gia-toc-huy-hoang","origin_name":"The Royal Family","type":"series","poster_url":"upload\/vod\/20251013-1\/768af16e154b1c99bcef2b4c5ec43750.jpg","thumb_url":"upload\/vod\/20251013-1\/04736f37c3ec481379ca4313df81a350.jpg","sub_docquyen":false,"chieurap":false,"time":"59 ph\u00fat\/t\u1eadp","episode_current":"T\u1eadp 6","quality":"FHD","lang":"Vietsub","year":2025,"category":[{"id":"37a7b38b6184a5ebd3c43015aa20709d","name":"Ch\u00ednh K\u1ecbch","slug":"chinh-kich"},{"id":"a7b065b92ad356387ef2e075dee66529","name":"T\u00e2m L\u00fd","slug":"tam-ly"}],"country":[{"id":"d4097fbffa8f7149a61281437171eb83","name":"Nh\u1eadt B\u1ea3n","slug":"nhat-ban"}]},{"tmdb":{"type":"tv","id":"271015","season":1,"vote_average":0,"vote_count":0},"imdb":{"id":null},"created":{"time":"2025-11-15T15:16:27.000Z"},"modified":{"time":"2025-11-16T23:27:20.000Z"},"_id":"436c26abd464041efd354bc550f76482","name":"Ph\u01b0\u1ee3ng Ho\u00e0ng \u0110\u00e0i Th\u01b0\u1ee3ng","slug":"phuong-hoang-dai-thuong","origin_name":"Love And Crown","type":"series","poster_url":"upload\/vod\/20251115-1\/ba88e3f37bfb0a7c40e286b3948fecf1.jpg","thumb_url":"upload\/vod\/20251115-1\/6de7ff42bbede5b0d2b8dfa5b9215bac.jpg","sub_docquyen":false,"chieurap":false,"time":"45 ph\u00fat\/t\u1eadp","episode_current":"T\u1eadp 8","quality":"FHD","lang":"Vietsub + Thuy\u1ebft Minh","year":2025,"category":[{"id":"37a7b38b6184a5ebd3c43015aa20709d","name":"Ch\u00ednh K\u1ecbch","slug":"chinh-kich"},{"id":"3a17c7283b71fa84e5a8d76fb790ed3e","name":"C\u1ed5 Trang","slug":"co-trang"},{"id":"a7b065b92ad356387ef2e075dee66529","name":"T\u00e2m L\u00fd","slug":"tam-ly"},{"id":"66c78b23908113d478d8d85390a244b4","name":"Phi\u00eau L\u01b0u","slug":"phieu-luu"}],"country":[{"id":"3e075636c731fe0f889c69e0bf82c083","name":"Trung Qu\u1ed1c","slug":"trung-quoc"}]},{"tmdb":{"type":"tv","id":"280946","season":1,"vote_average":0,"vote_count":0},"imdb":{"id":null},"created":{"time":"2025-10-11T23:50:45.000Z"},"modified":{"time":"2025-11-16T23:26:15.000Z"},"_id":"8074ea1e919ed5dc154c7fe6f1a2e212","name":"Gia \u0110\u00ecnh B\u00e3o T\u1ed1","slug":"gia-dinh-bao-to-2025","origin_name":"Typhoon Family","type":"series","poster_url":"upload\/vod\/20251012-1\/d4699ed181d717215a974193527143e4.jpg","thumb_url":"upload\/vod\/20251012-1\/a9db72672fdad74eb490d763bd92ecfa.jpg","sub_docquyen":false,"chieurap":false,"time":"76 ph\u00fat\/t\u1eadp","episode_current":"T\u1eadp 12","quality":"FHD","lang":"Vietsub + Thuy\u1ebft Minh","year":2025,"category":[{"id":"37a7b38b6184a5ebd3c43015aa20709d","name":"Ch\u00ednh K\u1ecbch","slug":"chinh-kich"},{"id":"bb2b4b030608ca5984c8dd0770f5b40b","name":"T\u00ecnh C\u1ea3m","slug":"tinh-cam"},{"id":"a7b065b92ad356387ef2e075dee66529","name":"T\u00e2m L\u00fd","slug":"tam-ly"}],"country":[{"id":"05de95be5fc404da9680bbb3dd8262e6","name":"H\u00e0n Qu\u1ed1c","slug":"han-quoc"}]},{"tmdb":{"type":"tv","id":"275592","season":1,"vote_average":0,"vote_count":1},"imdb":{"id":null},"created":{"time":"2025-10-26T09:43:14.000Z"},"modified":{"time":"2025-11-16T23:22:21.000Z"},"_id":"f72ce9098bc2b98030ed78319d60be6e","name":"Cu\u1ed9c S\u1ed1ng Trong M\u01a1 C\u1ee7a \u00d4ng Kim","slug":"cuoc-song-trong-mo-cua-ong-kim","origin_name":"The Dream Life Of Mr. Kim","type":"series","poster_url":"upload\/vod\/20251026-1\/043471199080589b7f41288758a36b14.jpg","thumb_url":"upload\/vod\/20251026-1\/9517134fd5b31de053da66201f3e7d53.jpg","sub_docquyen":false,"chieurap":false,"time":"72 ph\u00fat\/t\u1eadp","episode_current":"T\u1eadp 8","quality":"FHD","lang":"Vietsub","year":2025,"category":[{"id":"ba6fd52e5a3aca80eaaf1a3b50a182db","name":"H\u00e0i H\u01b0\u1edbc","slug":"hai-huoc"},{"id":"37a7b38b6184a5ebd3c43015aa20709d","name":"Ch\u00ednh K\u1ecbch","slug":"chinh-kich"},{"id":"bb2b4b030608ca5984c8dd0770f5b40b","name":"T\u00ecnh C\u1ea3m","slug":"tinh-cam"},{"id":"a7b065b92ad356387ef2e075dee66529","name":"T\u00e2m L\u00fd","slug":"tam-ly"}],"country":[{"id":"05de95be5fc404da9680bbb3dd8262e6","name":"H\u00e0n Qu\u1ed1c","slug":"han-quoc"}]},{"tmdb":{"type":"tv","id":"261902","season":1,"vote_average":0,"vote_count":0},"imdb":{"id":null},"created":{"time":"2025-11-02T16:16:06.000Z"},"modified":{"time":"2025-11-16T23:22:01.000Z"},"_id":"01efe0c4fb62ade937afa0bdf2ea0844","name":"M\u00f9a H\u1ea1 Cu\u1ed1i (Anh \u0110\u1ebfn C\u00f9ng M\u00f9a H\u1ea1)","slug":"mua-ha-cuoi-anh-den-cung-mua-ha","origin_name":"Last Summer","type":"series","poster_url":"upload\/vod\/20251102-1\/25d952621da1f9f6ac4df556acef5d26.jpg","thumb_url":"upload\/vod\/20251102-1\/7527483baa1df00f8aaf83faae534b77.jpg","sub_docquyen":false,"chieurap":false,"time":"70 ph\u00fat\/t\u1eadp","episode_current":"T\u1eadp 6","quality":"FHD","lang":"Vietsub + Thuy\u1ebft Minh","year":2025,"category":[{"id":"37a7b38b6184a5ebd3c43015aa20709d","name":"Ch\u00ednh K\u1ecbch","slug":"chinh-kich"},{"id":"ba6fd52e5a3aca80eaaf1a3b50a182db","name":"H\u00e0i H\u01b0\u1edbc","slug":"hai-huoc"},{"id":"bb2b4b030608ca5984c8dd0770f5b40b","name":"T\u00ecnh C\u1ea3m","slug":"tinh-cam"},{"id":"a7b065b92ad356387ef2e075dee66529","name":"T\u00e2m L\u00fd","slug":"tam-ly"}],"country":[{"id":"05de95be5fc404da9680bbb3dd8262e6","name":"H\u00e0n Qu\u1ed1c","slug":"han-quoc"}]}],"params":{"type_slug":"danh-sach","filterCategory":[""],"filterCountry":[""],"filterYear":[""],"filterType":[""],"sortField":"modified.time","sortType":"desc","pagination":{"totalItems":7294,"totalItemsPerPage":5,"currentPage":1,"totalPages":1459}},"type_list":"phim-bo","APP_DOMAIN_FRONTEND":"https:\/\/phimapi.com","APP_DOMAIN_CDN_IMAGE":"https:\/\/phimimg.com"}}