{"status":"success","msg":"done","data":{"seoOnPage":{"og_type":"website","titleHead":"Phim t\u1ed9i \u00e1c | t\u1ed9i \u00e1c vietsub | Phim t\u1ed9i \u00e1c hay | Tuy\u1ec3n t\u1eadp t\u1ed9i \u00e1c m\u1edbi nh\u1ea5t 2025","descriptionHead":"Phim t\u1ed9i \u00e1c hay tuy\u1ec3n t\u1eadp, phim t\u1ed9i \u00e1c m\u1edbi nh\u1ea5t, t\u1ed5ng h\u1ee3p phim t\u1ed9i \u00e1c, t\u1ed9i \u00e1c full HD, t\u1ed9i \u00e1c vietsub, xem t\u1ed9i \u00e1c online","og_image":["\/upload\/vod\/20251116-1\/1dfa124b40b4c2cc708df151fcc67268.jpg","\/upload\/vod\/20251116-1\/1ab0292dba1816075e1d0d8d7f1705ef.jpg","\/upload\/vod\/20251116-1\/6dce7def695f9ee63b0183ad624da89b.jpg","\/upload\/vod\/20251107-1\/7407856e63687002f12340cae2086a12.jpg","\/upload\/vod\/20251010-1\/2b410dd6cc634b51bc4674c47010ffdf.jpg"],"og_url":"tim-kiem?keyword=t\u1ed9i \u00e1c"},"breadCrumb":[{"name":"T\u00ecm ki\u1ebfm t\u1eeb kh\u00f3a: t\u1ed9i \u00e1c - Trang 1","isCurrent":true,"position":2}],"titlePage":"T\u00ecm ki\u1ebfm t\u1eeb kh\u00f3a: t\u1ed9i \u00e1c","items":[{"tmdb":{"type":"tv","id":"87508","season":3,"vote_average":7.836,"vote_count":113},"imdb":{"id":null},"created":{"time":"2025-11-16T17:59:25.000Z"},"modified":{"time":"2025-11-16T17:59:25.000Z"},"_id":"c1481a88d8e582ce58f9413d5ac93360","name":"T\u1ed9i \u00c1c Delhi (Ph\u1ea7n 3)","slug":"toi-ac-delhi-phan-3","origin_name":"Delhi Crime","type":"series","poster_url":"upload\/vod\/20251116-1\/1dfa124b40b4c2cc708df151fcc67268.jpg","thumb_url":"upload\/vod\/20251116-1\/35e314c4706f713aba8692e6b113a37a.jpg","sub_docquyen":false,"chieurap":false,"time":"51 ph\u00fat\/t\u1eadp","episode_current":"Ho\u00e0n T\u1ea5t (6\/6)","quality":"FHD","lang":"Vietsub","year":2025,"category":[{"id":"7a035ac0b37f5854f0f6979260899c90","name":"H\u00ecnh S\u1ef1","slug":"hinh-su"},{"id":"37a7b38b6184a5ebd3c43015aa20709d","name":"Ch\u00ednh K\u1ecbch","slug":"chinh-kich"},{"id":"a7b065b92ad356387ef2e075dee66529","name":"T\u00e2m L\u00fd","slug":"tam-ly"}],"country":[{"id":"445d337b5cd5de476f99333df6b0c2a7","name":"Canada","slug":"canada"},{"id":"aadd510492662beef1a980624b26c685","name":"\u1ea4n \u0110\u1ed9","slug":"an-do"},{"id":"74d9fa92f4dea9ecea8fc2233dc7921a","name":"\u00c2u M\u1ef9","slug":"au-my"}]},{"tmdb":{"type":"tv","id":"87508","season":3,"vote_average":7.836,"vote_count":113},"imdb":{"id":null},"created":{"time":"2023-12-07T22:00:26.000Z"},"modified":{"time":"2025-11-16T17:58:04.000Z"},"_id":"687fe34a901a03abed262a62e22f90db","name":"T\u1ed9i \u00c1c Delhi (Ph\u1ea7n 2)","slug":"toi-ac-delhi-phan-2","origin_name":"Delhi Crime (Season 2)","type":"series","poster_url":"upload\/vod\/20251116-1\/1ab0292dba1816075e1d0d8d7f1705ef.jpg","thumb_url":"upload\/vod\/20251116-1\/982a06b94a9055c86df51555c33d8bab.jpg","sub_docquyen":false,"chieurap":false,"time":"51 ph\u00fat\/t\u1eadp","episode_current":"Ho\u00e0n T\u1ea5t (5\/5)","quality":"FHD","lang":"Vietsub","year":2022,"category":[{"id":"7a035ac0b37f5854f0f6979260899c90","name":"H\u00ecnh S\u1ef1","slug":"hinh-su"},{"id":"a7b065b92ad356387ef2e075dee66529","name":"T\u00e2m L\u00fd","slug":"tam-ly"},{"id":"37a7b38b6184a5ebd3c43015aa20709d","name":"Ch\u00ednh K\u1ecbch","slug":"chinh-kich"}],"country":[{"id":"445d337b5cd5de476f99333df6b0c2a7","name":"Canada","slug":"canada"},{"id":"aadd510492662beef1a980624b26c685","name":"\u1ea4n \u0110\u1ed9","slug":"an-do"},{"id":"74d9fa92f4dea9ecea8fc2233dc7921a","name":"\u00c2u M\u1ef9","slug":"au-my"}]},{"tmdb":{"type":"tv","id":"87508","season":3,"vote_average":7.836,"vote_count":113},"imdb":{"id":null},"created":{"time":"2025-01-16T00:47:24.000Z"},"modified":{"time":"2025-11-16T17:56:27.000Z"},"_id":"358eabeadbcb172e3e49ac722b445fea","name":"T\u1ed9i \u00c1c Delhi (Ph\u1ea7n 1)","slug":"toi-ac-delhi-phan-1","origin_name":"Delhi Crime (Season 1)","type":"series","poster_url":"upload\/vod\/20251116-1\/6dce7def695f9ee63b0183ad624da89b.jpg","thumb_url":"upload\/vod\/20251116-1\/9a11e8b870ab6682d12768d24ba20bb2.jpg","sub_docquyen":false,"chieurap":false,"time":"51 ph\u00fat\/t\u1eadp","episode_current":"Ho\u00e0n T\u1ea5t (7\/7)","quality":"FHD","lang":"Vietsub","year":2019,"category":[{"id":"7a035ac0b37f5854f0f6979260899c90","name":"H\u00ecnh S\u1ef1","slug":"hinh-su"},{"id":"a7b065b92ad356387ef2e075dee66529","name":"T\u00e2m L\u00fd","slug":"tam-ly"},{"id":"37a7b38b6184a5ebd3c43015aa20709d","name":"Ch\u00ednh K\u1ecbch","slug":"chinh-kich"}],"country":[{"id":"445d337b5cd5de476f99333df6b0c2a7","name":"Canada","slug":"canada"},{"id":"aadd510492662beef1a980624b26c685","name":"\u1ea4n \u0110\u1ed9","slug":"an-do"},{"id":"74d9fa92f4dea9ecea8fc2233dc7921a","name":"\u00c2u M\u1ef9","slug":"au-my"}]},{"tmdb":{"type":null,"id":null,"season":null,"vote_average":0,"vote_count":0},"imdb":{"id":null},"created":{"time":"2025-11-07T20:03:00.000Z"},"modified":{"time":"2025-11-07T20:03:00.000Z"},"_id":"30817601adbc53cc3d07ee109c602083","name":"T\u1ed9i \u00c1c K\u1ebb L\u00e0m Ng\u01a1","slug":"toi-ac-ke-lam-ngo","origin_name":"As You Stood By","type":"series","poster_url":"upload\/vod\/20251107-1\/7407856e63687002f12340cae2086a12.jpg","thumb_url":"upload\/vod\/20251107-1\/7bb8995b48ec6ba18619b44ca9eef0e1.jpg","sub_docquyen":false,"chieurap":false,"time":"63 ph\u00fat\/t\u1eadp","episode_current":"Ho\u00e0n T\u1ea5t (8\/8)","quality":"FHD","lang":"Vietsub + L\u1ed3ng Ti\u1ebfng","year":2025,"category":[{"id":"7a035ac0b37f5854f0f6979260899c90","name":"H\u00ecnh S\u1ef1","slug":"hinh-su"},{"id":"37a7b38b6184a5ebd3c43015aa20709d","name":"Ch\u00ednh K\u1ecbch","slug":"chinh-kich"},{"id":"2fb53017b3be83cd754a08adab3e916c","name":"B\u00ed \u1ea8n","slug":"bi-an"},{"id":"a7b065b92ad356387ef2e075dee66529","name":"T\u00e2m L\u00fd","slug":"tam-ly"}],"country":[{"id":"05de95be5fc404da9680bbb3dd8262e6","name":"H\u00e0n Qu\u1ed1c","slug":"han-quoc"}]},{"tmdb":{"type":"movie","id":"10952","season":null,"vote_average":6.633,"vote_count":560},"imdb":{"id":null},"created":{"time":"2025-10-10T19:59:31.000Z"},"modified":{"time":"2025-10-11T02:46:31.000Z"},"_id":"7361bffc2bfd9efcbf652e56f5f9d23c","name":"Th\u00e0nh Ph\u1ed1 T\u1ed9i \u00c1c","slug":"thanh-pho-toi-ac-1991","origin_name":"New Jack City","type":"single","poster_url":"upload\/vod\/20251010-1\/2b410dd6cc634b51bc4674c47010ffdf.jpg","thumb_url":"upload\/vod\/20251010-1\/e4026a9538670acaf54b0b92236cf80c.jpg","sub_docquyen":false,"chieurap":false,"time":"97 ph\u00fat","episode_current":"Full","quality":"FHD","lang":"Vietsub","year":1991,"category":[{"id":"a7b065b92ad356387ef2e075dee66529","name":"T\u00e2m L\u00fd","slug":"tam-ly"},{"id":"7a035ac0b37f5854f0f6979260899c90","name":"H\u00ecnh S\u1ef1","slug":"hinh-su"},{"id":"37a7b38b6184a5ebd3c43015aa20709d","name":"Ch\u00ednh K\u1ecbch","slug":"chinh-kich"}],"country":[{"id":"74d9fa92f4dea9ecea8fc2233dc7921a","name":"\u00c2u M\u1ef9","slug":"au-my"}]}],"params":{"type_slug":"tim-kiem","keyword":"t\u1ed9i \u00e1c","filterCategory":[""],"filterCountry":[""],"filterYear":[""],"filterType":[""],"sortField":"modified.time","sortType":"desc","pagination":{"totalItems":62,"totalItemsPerPage":5,"currentPage":1,"totalPages":13}},"type_list":"","APP_DOMAIN_FRONTEND":"https:\/\/phimapi.com","APP_DOMAIN_CDN_IMAGE":"https:\/\/phimimg.com"}}