{"status":"success","msg":"done","data":{"seoOnPage":{"og_type":"website","titleHead":"Phim ph\u01b0\u1ee3ng | ph\u01b0\u1ee3ng vietsub | Phim ph\u01b0\u1ee3ng hay | Tuy\u1ec3n t\u1eadp ph\u01b0\u1ee3ng m\u1edbi nh\u1ea5t 2025","descriptionHead":"Phim ph\u01b0\u1ee3ng hay tuy\u1ec3n t\u1eadp, phim ph\u01b0\u1ee3ng m\u1edbi nh\u1ea5t, t\u1ed5ng h\u1ee3p phim ph\u01b0\u1ee3ng, ph\u01b0\u1ee3ng full HD, ph\u01b0\u1ee3ng vietsub, xem ph\u01b0\u1ee3ng online","og_image":["\/upload\/vod\/20251115-1\/ba88e3f37bfb0a7c40e286b3948fecf1.jpg","\/upload\/vod\/20251106-1\/91edac10bd2a3133473dbb103cabdced.jpg","\/upload\/vod\/20251021-1\/2dd333e1575c789a00404597810d5eee.jpg","\/upload\/vod\/20251014-1\/a15b62aac5fce7da53a29361b37a4883.jpg","\/upload\/vod\/20240310-1\/442c4194f981de53764aba49a92e9781.jpg"],"og_url":"tim-kiem?keyword=ph\u01b0\u1ee3ng"},"breadCrumb":[{"name":"T\u00ecm ki\u1ebfm t\u1eeb kh\u00f3a: ph\u01b0\u1ee3ng - Trang 1","isCurrent":true,"position":2}],"titlePage":"T\u00ecm ki\u1ebfm t\u1eeb kh\u00f3a: ph\u01b0\u1ee3ng","items":[{"tmdb":{"type":"tv","id":"271015","season":1,"vote_average":0,"vote_count":0},"imdb":{"id":null},"created":{"time":"2025-11-15T15:16:27.000Z"},"modified":{"time":"2025-11-16T23:27:20.000Z"},"_id":"436c26abd464041efd354bc550f76482","name":"Ph\u01b0\u1ee3ng Ho\u00e0ng \u0110\u00e0i Th\u01b0\u1ee3ng","slug":"phuong-hoang-dai-thuong","origin_name":"Love And Crown","type":"series","poster_url":"upload\/vod\/20251115-1\/ba88e3f37bfb0a7c40e286b3948fecf1.jpg","thumb_url":"upload\/vod\/20251115-1\/6de7ff42bbede5b0d2b8dfa5b9215bac.jpg","sub_docquyen":false,"chieurap":false,"time":"45 ph\u00fat\/t\u1eadp","episode_current":"T\u1eadp 8","quality":"FHD","lang":"Vietsub + Thuy\u1ebft Minh","year":2025,"category":[{"id":"37a7b38b6184a5ebd3c43015aa20709d","name":"Ch\u00ednh K\u1ecbch","slug":"chinh-kich"},{"id":"3a17c7283b71fa84e5a8d76fb790ed3e","name":"C\u1ed5 Trang","slug":"co-trang"},{"id":"a7b065b92ad356387ef2e075dee66529","name":"T\u00e2m L\u00fd","slug":"tam-ly"},{"id":"66c78b23908113d478d8d85390a244b4","name":"Phi\u00eau L\u01b0u","slug":"phieu-luu"}],"country":[{"id":"3e075636c731fe0f889c69e0bf82c083","name":"Trung Qu\u1ed1c","slug":"trung-quoc"}]},{"tmdb":{"type":"tv","id":"303944","season":1,"vote_average":0,"vote_count":0},"imdb":{"id":null},"created":{"time":"2025-11-06T19:00:07.000Z"},"modified":{"time":"2025-11-13T16:17:23.000Z"},"_id":"9c0a8e12265d2305a56af86e552e47d5","name":"Ph\u01b0\u1ee3ng Ho\u00e0ng Truy\u1ec7n","slug":"phuong-hoang-truyen","origin_name":"Her Phoenix Majesty","type":"series","poster_url":"upload\/vod\/20251106-1\/91edac10bd2a3133473dbb103cabdced.jpg","thumb_url":"upload\/vod\/20251106-1\/b685cde56d6f8765fbe2773762c70a69.jpg","sub_docquyen":false,"chieurap":false,"time":"17 ph\u00fat\/t\u1eadp","episode_current":"T\u1eadp 21","quality":"FHD","lang":"Vietsub","year":2025,"category":[{"id":"37a7b38b6184a5ebd3c43015aa20709d","name":"Ch\u00ednh K\u1ecbch","slug":"chinh-kich"},{"id":"3a17c7283b71fa84e5a8d76fb790ed3e","name":"C\u1ed5 Trang","slug":"co-trang"},{"id":"a7b065b92ad356387ef2e075dee66529","name":"T\u00e2m L\u00fd","slug":"tam-ly"}],"country":[{"id":"3e075636c731fe0f889c69e0bf82c083","name":"Trung Qu\u1ed1c","slug":"trung-quoc"}]},{"tmdb":{"type":"tv","id":"303091","season":1,"vote_average":0,"vote_count":0},"imdb":{"id":null},"created":{"time":"2025-10-21T20:14:04.000Z"},"modified":{"time":"2025-11-01T18:29:17.000Z"},"_id":"b23c5765e165d83aa924fa8f13c05f25","name":"Ki\u1ec1u Th\u00ea Ph\u01b0\u01a1ng Ni\u00ean K\u1ef7","slug":"kieu-the-phuong-nien-ky","origin_name":"Keeping Up With Beauty","type":"series","poster_url":"upload\/vod\/20251021-1\/2dd333e1575c789a00404597810d5eee.jpg","thumb_url":"upload\/vod\/20251021-1\/9ade48db7d9b6b6619dd267dc94180e8.jpg","sub_docquyen":false,"chieurap":false,"time":"16 ph\u00fat\/t\u1eadp","episode_current":"Ho\u00e0n T\u1ea5t (24\/24)","quality":"FHD","lang":"Vietsub","year":2025,"category":[{"id":"37a7b38b6184a5ebd3c43015aa20709d","name":"Ch\u00ednh K\u1ecbch","slug":"chinh-kich"},{"id":"bb2b4b030608ca5984c8dd0770f5b40b","name":"T\u00ecnh C\u1ea3m","slug":"tinh-cam"},{"id":"a7b065b92ad356387ef2e075dee66529","name":"T\u00e2m L\u00fd","slug":"tam-ly"}],"country":[{"id":"92aa3c93de523a414a520399bb6a4304","name":"Trung Qu\u00f4\u0301c","slug":"trung-quoc"}]},{"tmdb":{"type":"tv","id":"72043","season":2,"vote_average":6.6,"vote_count":5},"imdb":{"id":null},"created":{"time":"2025-10-14T16:25:37.000Z"},"modified":{"time":"2025-10-14T16:25:37.000Z"},"_id":"ec67ec14e2f01a4baeb2464a044aaec1","name":"Ph\u01b0\u01a1ng \u0110\u1ea1i Tr\u00f9","slug":"phuong-dai-tru","origin_name":"Chef Fang","type":"series","poster_url":"upload\/vod\/20251014-1\/a15b62aac5fce7da53a29361b37a4883.jpg","thumb_url":"upload\/vod\/20251014-1\/8a002e9e1bf725e1a53d6abfbb8732fd.jpg","sub_docquyen":false,"chieurap":false,"time":"40 ph\u00fat\/t\u1eadp","episode_current":"Ho\u00e0n T\u1ea5t (36\/36)","quality":"FHD","lang":"Vietsub","year":2017,"category":[{"id":"ba6fd52e5a3aca80eaaf1a3b50a182db","name":"H\u00e0i H\u01b0\u1edbc","slug":"hai-huoc"},{"id":"2fb53017b3be83cd754a08adab3e916c","name":"B\u00ed \u1ea8n","slug":"bi-an"},{"id":"3a17c7283b71fa84e5a8d76fb790ed3e","name":"C\u1ed5 Trang","slug":"co-trang"},{"id":"bb2b4b030608ca5984c8dd0770f5b40b","name":"T\u00ecnh C\u1ea3m","slug":"tinh-cam"},{"id":"a7b065b92ad356387ef2e075dee66529","name":"T\u00e2m L\u00fd","slug":"tam-ly"}],"country":[{"id":"3e075636c731fe0f889c69e0bf82c083","name":"Trung Qu\u1ed1c","slug":"trung-quoc"}]},{"tmdb":{"type":null,"id":null,"season":null,"vote_average":0,"vote_count":0},"imdb":{"id":null},"created":{"time":"2024-03-10T15:09:30.000Z"},"modified":{"time":"2025-10-12T00:44:33.000Z"},"_id":"678253ed578767d7d2548e964e799496","name":"D\u1eef Ph\u01b0\u1ee3ng H\u00e0nh","slug":"du-phuong-hanh","origin_name":"The Legend of ShenLi","type":"series","poster_url":"upload\/vod\/20240310-1\/442c4194f981de53764aba49a92e9781.jpg","thumb_url":"upload\/vod\/20240310-1\/759bbb161873247310b3ad71ac96d95b.jpg","sub_docquyen":false,"chieurap":false,"time":"45 ph\u00fat\/t\u1eadp","episode_current":"Ho\u00e0n T\u1ea5t (39\/39)","quality":"FHD","lang":"Vietsub + Thuy\u1ebft Minh","year":2024,"category":[{"id":"37a7b38b6184a5ebd3c43015aa20709d","name":"Ch\u00ednh K\u1ecbch","slug":"chinh-kich"},{"id":"68564911f00849030f9c9c144ea1b931","name":"Vi\u1ec5n T\u01b0\u1edfng","slug":"vien-tuong"}],"country":[{"id":"3e075636c731fe0f889c69e0bf82c083","name":"Trung Qu\u1ed1c","slug":"trung-quoc"}]}],"params":{"type_slug":"tim-kiem","keyword":"ph\u01b0\u1ee3ng","filterCategory":[""],"filterCountry":[""],"filterYear":[""],"filterType":[""],"sortField":"modified.time","sortType":"desc","pagination":{"totalItems":75,"totalItemsPerPage":5,"currentPage":1,"totalPages":15}},"type_list":"","APP_DOMAIN_FRONTEND":"https:\/\/phimapi.com","APP_DOMAIN_CDN_IMAGE":"https:\/\/phimimg.com"}}