{"status":true,"msg":"done","data":{"seoOnPage":{"og_type":"website","titleHead":"Phim b\u1ed9 | Phim b\u1ed9 hay tuy\u1ec3n ch\u1ecdn | Phim b\u1ed9 m\u1edbi nh\u1ea5t 2025 - Trang 2","descriptionHead":"Phim b\u1ed9 m\u1edbi nh\u1ea5t tuy\u1ec3n ch\u1ecdn ch\u1ea5t l\u01b0\u1ee3ng cao, phim b\u1ed9 tr\u1ecdn b\u1ed9 vietsub c\u1eadp nh\u1eadt nhanh nh\u1ea5t. Phim b\u1ed9 vietsub nhanh nh\u1ea5t - Trang 2","og_image":["\/upload\/vod\/20251115-1\/72ad79a0049984e495e1cfc9453381ef.jpg","\/upload\/vod\/20251115-1\/e0aa65753c3ea56bd52b8b700fb4eaa9.jpg","\/upload\/vod\/20251115-1\/3496fce230b1f6efa8f02ee20c04d38a.jpg","\/upload\/vod\/20251115-1\/42ba1bfb0c3ef143173b581f02f63e69.jpg","\/upload\/vod\/20251115-1\/2538c19a7d714ef4f52cccc5dc778e9b.jpg","\/upload\/vod\/20251115-1\/e3c6518768af93d508b7762c86c0b8c3.jpg","\/upload\/vod\/20251115-1\/3a1b8e887c37d42cb015a8172f739231.jpg","\/upload\/vod\/20251115-1\/8a200611e43f3b4a132ad731b606b6e8.jpg","\/upload\/vod\/20251115-1\/39c23ee7ef1adb6574ac0e4b52a4e1b3.jpg","\/upload\/vod\/20251115-1\/7b963875c1b0605863be430a38b11adf.jpg","\/upload\/vod\/20251115-1\/5ce5cc0fdece6ef2260556ebcfefcdc4.jpg","\/upload\/vod\/20251115-1\/b716ab73ddb7e693a0dcfd0b0e911ac3.jpg","\/upload\/vod\/20251115-1\/1375018a963cea968a30ad8bf3ca14d2.jpg","\/upload\/vod\/20251114-1\/3cbc9d5d5ad900e4c0fa32bf81d74636.jpg","\/upload\/vod\/20251114-1\/cad60f92d599657a386e28731a4fb5cc.jpg","\/upload\/vod\/20251114-1\/f36d3cd102f2df0727579f1c5d63555b.jpg","\/upload\/vod\/20251114-1\/856059aa749a5292fee1ed83657bdd3e.jpg","\/upload\/vod\/20251114-1\/5617b4f0dd65cde7f3f77522694b29f7.jpg","\/upload\/vod\/20251114-1\/996ef14ade352ee664a3bc745a5c24ae.jpg","\/upload\/vod\/20251114-1\/488247d3e51217b189e30fbd3774776d.jpg"],"og_url":"danh-sach\/phim-bo"},"breadCrumb":[{"name":"Phim B\u1ed9","slug":"\/danh-sach\/phim-bo","isCurrent":false,"position":2},{"name":"Trang 2","isCurrent":true,"position":3}],"titlePage":"Phim B\u1ed9","items":[{"tmdb":{"type":"tv","id":"32406","season":4,"vote_average":7.1,"vote_count":107},"imdb":{"id":null},"created":{"time":"2025-11-15T02:41:15.000Z"},"modified":{"time":"2025-11-15T02:41:15.000Z"},"_id":"0ba166bf271f1eb979cda386d2b74265","name":"Ch\u1eef K B\u1ef1 (Ph\u1ea7n 3)","slug":"chu-k-bu-phan-3","origin_name":"The Big C (Season 3)","type":"series","poster_url":"upload\/vod\/20251115-1\/72ad79a0049984e495e1cfc9453381ef.jpg","thumb_url":"upload\/vod\/20251115-1\/734ca26b6dba8c00035e0b35a82a7279.jpg","sub_docquyen":false,"chieurap":false,"time":"27 ph\u00fat\/t\u1eadp","episode_current":"Ho\u00e0n T\u1ea5t (10\/10)","quality":"FHD","lang":"Vietsub","year":2012,"category":[{"id":"ba6fd52e5a3aca80eaaf1a3b50a182db","name":"H\u00e0i H\u01b0\u1edbc","slug":"hai-huoc"},{"id":"37a7b38b6184a5ebd3c43015aa20709d","name":"Ch\u00ednh K\u1ecbch","slug":"chinh-kich"},{"id":"a7b065b92ad356387ef2e075dee66529","name":"T\u00e2m L\u00fd","slug":"tam-ly"}],"country":[{"id":"74d9fa92f4dea9ecea8fc2233dc7921a","name":"\u00c2u M\u1ef9","slug":"au-my"}]},{"tmdb":{"type":"tv","id":"32406","season":4,"vote_average":7.1,"vote_count":107},"imdb":{"id":null},"created":{"time":"2025-11-15T02:39:06.000Z"},"modified":{"time":"2025-11-15T02:39:06.000Z"},"_id":"4b30ac9887d54b556ace5ffa8810316b","name":"Ch\u1eef K B\u1ef1 (Ph\u1ea7n 2)","slug":"chu-k-bu-phan-2","origin_name":"The Big C (Season 2)","type":"series","poster_url":"upload\/vod\/20251115-1\/e0aa65753c3ea56bd52b8b700fb4eaa9.jpg","thumb_url":"upload\/vod\/20251115-1\/410f8698838296b6dfc1aeec158211d3.jpg","sub_docquyen":false,"chieurap":false,"time":"27 ph\u00fat\/t\u1eadp","episode_current":"Ho\u00e0n T\u1ea5t (13\/13)","quality":"FHD","lang":"Vietsub","year":2011,"category":[{"id":"ba6fd52e5a3aca80eaaf1a3b50a182db","name":"H\u00e0i H\u01b0\u1edbc","slug":"hai-huoc"},{"id":"37a7b38b6184a5ebd3c43015aa20709d","name":"Ch\u00ednh K\u1ecbch","slug":"chinh-kich"},{"id":"a7b065b92ad356387ef2e075dee66529","name":"T\u00e2m L\u00fd","slug":"tam-ly"}],"country":[{"id":"74d9fa92f4dea9ecea8fc2233dc7921a","name":"\u00c2u M\u1ef9","slug":"au-my"}]},{"tmdb":{"type":"tv","id":"32406","season":4,"vote_average":7.1,"vote_count":107},"imdb":{"id":null},"created":{"time":"2025-11-15T02:37:39.000Z"},"modified":{"time":"2025-11-15T02:37:39.000Z"},"_id":"2b853994eaf7449d276e802d78edfd87","name":"Ch\u1eef K B\u1ef1 (Ph\u1ea7n 1)","slug":"chu-k-bu-phan-1","origin_name":"The Big C (Season 1)","type":"series","poster_url":"upload\/vod\/20251115-1\/3496fce230b1f6efa8f02ee20c04d38a.jpg","thumb_url":"upload\/vod\/20251115-1\/2482219476014383e77fa84606dbd1fa.jpg","sub_docquyen":false,"chieurap":false,"time":"27 ph\u00fat\/t\u1eadp","episode_current":"Ho\u00e0n T\u1ea5t (13\/13)","quality":"FHD","lang":"Vietsub","year":2010,"category":[{"id":"ba6fd52e5a3aca80eaaf1a3b50a182db","name":"H\u00e0i H\u01b0\u1edbc","slug":"hai-huoc"},{"id":"37a7b38b6184a5ebd3c43015aa20709d","name":"Ch\u00ednh K\u1ecbch","slug":"chinh-kich"},{"id":"a7b065b92ad356387ef2e075dee66529","name":"T\u00e2m L\u00fd","slug":"tam-ly"}],"country":[{"id":"74d9fa92f4dea9ecea8fc2233dc7921a","name":"\u00c2u M\u1ef9","slug":"au-my"}]},{"tmdb":{"type":"tv","id":"274979","season":1,"vote_average":7,"vote_count":1},"imdb":{"id":null},"created":{"time":"2025-11-15T02:24:06.000Z"},"modified":{"time":"2025-11-15T02:24:06.000Z"},"_id":"7c6c8cbaba5894074d4ce2e7b748a206","name":"Chim C\u00fac Cu Pha L\u00ea (El cuco de cristal)","slug":"chim-cuc-cu-pha-le-el-cuco-de-cristal","origin_name":"The Crystal Cuckoo","type":"series","poster_url":"upload\/vod\/20251115-1\/42ba1bfb0c3ef143173b581f02f63e69.jpg","thumb_url":"upload\/vod\/20251115-1\/d0bcfadd70c28f2f5bc4742598362cb2.jpg","sub_docquyen":false,"chieurap":false,"time":"45 ph\u00fat\/t\u1eadp","episode_current":"Ho\u00e0n T\u1ea5t (6\/6)","quality":"FHD","lang":"Vietsub","year":2025,"category":[{"id":"37a7b38b6184a5ebd3c43015aa20709d","name":"Ch\u00ednh K\u1ecbch","slug":"chinh-kich"},{"id":"a7b065b92ad356387ef2e075dee66529","name":"T\u00e2m L\u00fd","slug":"tam-ly"}],"country":[{"id":"8a40abac202ab3659bb98f71f05458d1","name":"T\u00e2y Ban Nha","slug":"tay-ban-nha"}]},{"tmdb":{"type":"tv","id":"73157","season":3,"vote_average":7.2,"vote_count":538},"imdb":{"id":null},"created":{"time":"2025-11-15T02:18:41.000Z"},"modified":{"time":"2025-11-15T02:18:41.000Z"},"_id":"43d5b8fc1b0674e7cfd04c36d6bb6442","name":"Cao Th\u1ee7 T\u01b0\u01a1ng Lai (Ph\u1ea7n 3)","slug":"cao-thu-tuong-lai-phan-3","origin_name":"Future Man (Season 3)","type":"series","poster_url":"upload\/vod\/20251115-1\/2538c19a7d714ef4f52cccc5dc778e9b.jpg","thumb_url":"upload\/vod\/20251115-1\/a453d607e9859d96a123776a3da54f07.jpg","sub_docquyen":false,"chieurap":false,"time":"30 ph\u00fat\/t\u1eadp","episode_current":"Ho\u00e0n T\u1ea5t (8\/8)","quality":"FHD","lang":"Vietsub","year":2020,"category":[{"id":"ba6fd52e5a3aca80eaaf1a3b50a182db","name":"H\u00e0i H\u01b0\u1edbc","slug":"hai-huoc"},{"id":"0bcf4077916678de9b48c89221fcf8ae","name":"Khoa H\u1ecdc","slug":"khoa-hoc"},{"id":"68564911f00849030f9c9c144ea1b931","name":"Vi\u1ec5n T\u01b0\u1edfng","slug":"vien-tuong"},{"id":"a7b065b92ad356387ef2e075dee66529","name":"T\u00e2m L\u00fd","slug":"tam-ly"}],"country":[{"id":"74d9fa92f4dea9ecea8fc2233dc7921a","name":"\u00c2u M\u1ef9","slug":"au-my"}]},{"tmdb":{"type":"tv","id":"73157","season":3,"vote_average":7.2,"vote_count":538},"imdb":{"id":null},"created":{"time":"2025-11-15T02:15:22.000Z"},"modified":{"time":"2025-11-15T02:15:22.000Z"},"_id":"dfd6d3e1cc00d58f69d8505479da0d6e","name":"Cao Th\u1ee7 T\u01b0\u01a1ng Lai (Ph\u1ea7n 2)","slug":"cao-thu-tuong-lai-phan-2","origin_name":"Future Man (Season 2)","type":"series","poster_url":"upload\/vod\/20251115-1\/e3c6518768af93d508b7762c86c0b8c3.jpg","thumb_url":"upload\/vod\/20251115-1\/bd447df4595822dc7fc29d28a23812b6.jpg","sub_docquyen":false,"chieurap":false,"time":"30 ph\u00fat\/t\u1eadp","episode_current":"Ho\u00e0n T\u1ea5t (13\/13)","quality":"FHD","lang":"Vietsub","year":2019,"category":[{"id":"ba6fd52e5a3aca80eaaf1a3b50a182db","name":"H\u00e0i H\u01b0\u1edbc","slug":"hai-huoc"},{"id":"0bcf4077916678de9b48c89221fcf8ae","name":"Khoa H\u1ecdc","slug":"khoa-hoc"},{"id":"68564911f00849030f9c9c144ea1b931","name":"Vi\u1ec5n T\u01b0\u1edfng","slug":"vien-tuong"},{"id":"a7b065b92ad356387ef2e075dee66529","name":"T\u00e2m L\u00fd","slug":"tam-ly"}],"country":[{"id":"74d9fa92f4dea9ecea8fc2233dc7921a","name":"\u00c2u M\u1ef9","slug":"au-my"}]},{"tmdb":{"type":"tv","id":"73157","season":3,"vote_average":7.2,"vote_count":538},"imdb":{"id":null},"created":{"time":"2025-11-15T02:13:34.000Z"},"modified":{"time":"2025-11-15T02:13:34.000Z"},"_id":"e6eb4c2fedeb246841d5b95592cb1218","name":"Cao Th\u1ee7 T\u01b0\u01a1ng Lai (Ph\u1ea7n 1)","slug":"cao-thu-tuong-lai-phan-1","origin_name":"Future Man (Season 1)","type":"series","poster_url":"upload\/vod\/20251115-1\/3a1b8e887c37d42cb015a8172f739231.jpg","thumb_url":"upload\/vod\/20251115-1\/8478135b1bc36048213e0bd12e9712f5.jpg","sub_docquyen":false,"chieurap":false,"time":"30 ph\u00fat\/t\u1eadp","episode_current":"Ho\u00e0n T\u1ea5t (13\/13)","quality":"FHD","lang":"Vietsub","year":2017,"category":[{"id":"ba6fd52e5a3aca80eaaf1a3b50a182db","name":"H\u00e0i H\u01b0\u1edbc","slug":"hai-huoc"},{"id":"0bcf4077916678de9b48c89221fcf8ae","name":"Khoa H\u1ecdc","slug":"khoa-hoc"},{"id":"68564911f00849030f9c9c144ea1b931","name":"Vi\u1ec5n T\u01b0\u1edfng","slug":"vien-tuong"},{"id":"a7b065b92ad356387ef2e075dee66529","name":"T\u00e2m L\u00fd","slug":"tam-ly"}],"country":[{"id":"74d9fa92f4dea9ecea8fc2233dc7921a","name":"\u00c2u M\u1ef9","slug":"au-my"}]},{"tmdb":{"type":null,"id":null,"season":null,"vote_average":0,"vote_count":0},"imdb":{"id":null},"created":{"time":"2025-11-15T01:54:39.000Z"},"modified":{"time":"2025-11-15T01:54:39.000Z"},"_id":"3db0c81b0a25ab06af83bde59115dd4b","name":"C\u00e1nh Di\u1ec1u H\u1ea1nh Ph\u00fac (Ph\u1ea7n 2)","slug":"canh-dieu-hanh-phuc-phan-2","origin_name":"Happy Kite (Season 2)","type":"series","poster_url":"upload\/vod\/20251115-1\/8a200611e43f3b4a132ad731b606b6e8.jpg","thumb_url":"upload\/vod\/20251115-1\/a9e82ff0d1327b326f3e80dc8d53534c.jpg","sub_docquyen":false,"chieurap":false,"time":"45 ph\u00fat\/t\u1eadp","episode_current":"Ho\u00e0n T\u1ea5t (14\/14)","quality":"FHD","lang":"Vietsub","year":2024,"category":[{"id":"37a7b38b6184a5ebd3c43015aa20709d","name":"Ch\u00ednh K\u1ecbch","slug":"chinh-kich"},{"id":"bb2b4b030608ca5984c8dd0770f5b40b","name":"T\u00ecnh C\u1ea3m","slug":"tinh-cam"},{"id":"a7b065b92ad356387ef2e075dee66529","name":"T\u00e2m L\u00fd","slug":"tam-ly"}],"country":[{"id":"3f0e49c46cbde0c7adf5ea04a97ab261","name":"Malaysia","slug":"malaysia"}]},{"tmdb":{"type":null,"id":null,"season":null,"vote_average":0,"vote_count":0},"imdb":{"id":null},"created":{"time":"2025-11-15T01:50:36.000Z"},"modified":{"time":"2025-11-15T01:50:36.000Z"},"_id":"5d2c27ae7617d2660bbdc0f22d141ab8","name":"C\u00e1nh Di\u1ec1u H\u1ea1nh Ph\u00fac (Ph\u1ea7n 1)","slug":"canh-dieu-hanh-phuc-phan-1","origin_name":"Happy Kite (Season 1)","type":"series","poster_url":"upload\/vod\/20251115-1\/39c23ee7ef1adb6574ac0e4b52a4e1b3.jpg","thumb_url":"upload\/vod\/20251115-1\/ffdc044c8e8a1345d0940c1517ff185d.jpg","sub_docquyen":false,"chieurap":false,"time":"45 ph\u00fat\/t\u1eadp","episode_current":"Ho\u00e0n T\u1ea5t (14\/14)","quality":"FHD","lang":"Vietsub","year":2024,"category":[{"id":"37a7b38b6184a5ebd3c43015aa20709d","name":"Ch\u00ednh K\u1ecbch","slug":"chinh-kich"},{"id":"bb2b4b030608ca5984c8dd0770f5b40b","name":"T\u00ecnh C\u1ea3m","slug":"tinh-cam"},{"id":"a7b065b92ad356387ef2e075dee66529","name":"T\u00e2m L\u00fd","slug":"tam-ly"}],"country":[{"id":"3f0e49c46cbde0c7adf5ea04a97ab261","name":"Malaysia","slug":"malaysia"}]},{"tmdb":{"type":"tv","id":"283392","season":1,"vote_average":0,"vote_count":0},"imdb":{"id":null},"created":{"time":"2025-11-15T01:21:23.000Z"},"modified":{"time":"2025-11-15T16:50:35.000Z"},"_id":"10cc05b82e144366c50629b9e87c56ed","name":"B\u00ed Quy\u1ebft Tr\u00fang S\u1ed1","slug":"bi-quyet-trung-so","origin_name":"How To Win The Lottery \/ Me late que s\u00ed","type":"series","poster_url":"upload\/vod\/20251115-1\/7b963875c1b0605863be430a38b11adf.jpg","thumb_url":"upload\/vod\/20251115-1\/804aa8327ba7734156bd51fd63697c23.jpg","sub_docquyen":false,"chieurap":false,"time":"45 ph\u00fat\/t\u1eadp","episode_current":"Ho\u00e0n T\u1ea5t (6\/6)","quality":"FHD","lang":"Vietsub","year":2025,"category":[{"id":"37a7b38b6184a5ebd3c43015aa20709d","name":"Ch\u00ednh K\u1ecbch","slug":"chinh-kich"},{"id":"ba6fd52e5a3aca80eaaf1a3b50a182db","name":"H\u00e0i H\u01b0\u1edbc","slug":"hai-huoc"},{"id":"a7b065b92ad356387ef2e075dee66529","name":"T\u00e2m L\u00fd","slug":"tam-ly"}],"country":[{"id":"8a40abac202ab3659bb98f71f05458d1","name":"T\u00e2y Ban Nha","slug":"tay-ban-nha"}]},{"tmdb":{"type":"tv","id":"72755","season":3,"vote_average":7.3,"vote_count":336},"imdb":{"id":null},"created":{"time":"2025-11-15T01:18:19.000Z"},"modified":{"time":"2025-11-15T01:18:19.000Z"},"_id":"4b614442441630d9df7528a7a7af9315","name":"Absentia (Ph\u1ea7n 3)","slug":"absentia-phan-3","origin_name":"Absentia (Season 3)","type":"series","poster_url":"upload\/vod\/20251115-1\/5ce5cc0fdece6ef2260556ebcfefcdc4.jpg","thumb_url":"upload\/vod\/20251115-1\/be3ba85b620f46a089b059519281630a.jpg","sub_docquyen":false,"chieurap":false,"time":"50 ph\u00fat\/t\u1eadp","episode_current":"Ho\u00e0n T\u1ea5t (10\/10)","quality":"FHD","lang":"Vietsub","year":2020,"category":[{"id":"7a035ac0b37f5854f0f6979260899c90","name":"H\u00ecnh S\u1ef1","slug":"hinh-su"},{"id":"37a7b38b6184a5ebd3c43015aa20709d","name":"Ch\u00ednh K\u1ecbch","slug":"chinh-kich"},{"id":"2fb53017b3be83cd754a08adab3e916c","name":"B\u00ed \u1ea8n","slug":"bi-an"},{"id":"a7b065b92ad356387ef2e075dee66529","name":"T\u00e2m L\u00fd","slug":"tam-ly"}],"country":[{"id":"445d337b5cd5de476f99333df6b0c2a7","name":"Canada","slug":"canada"},{"id":"74d9fa92f4dea9ecea8fc2233dc7921a","name":"\u00c2u M\u1ef9","slug":"au-my"}]},{"tmdb":{"type":"tv","id":"72755","season":3,"vote_average":7.3,"vote_count":336},"imdb":{"id":null},"created":{"time":"2025-11-15T01:17:12.000Z"},"modified":{"time":"2025-11-15T01:17:12.000Z"},"_id":"3f989b0f0f818ae98f79381d9c1ada42","name":"Absentia (Ph\u1ea7n 2)","slug":"absentia-phan-2","origin_name":"Absentia (Season 2)","type":"series","poster_url":"upload\/vod\/20251115-1\/b716ab73ddb7e693a0dcfd0b0e911ac3.jpg","thumb_url":"upload\/vod\/20251115-1\/891cf2516618ad54615a4b2381daec32.jpg","sub_docquyen":false,"chieurap":false,"time":"50 ph\u00fat\/t\u1eadp","episode_current":"Ho\u00e0n T\u1ea5t (10\/10)","quality":"FHD","lang":"Vietsub","year":2019,"category":[{"id":"7a035ac0b37f5854f0f6979260899c90","name":"H\u00ecnh S\u1ef1","slug":"hinh-su"},{"id":"37a7b38b6184a5ebd3c43015aa20709d","name":"Ch\u00ednh K\u1ecbch","slug":"chinh-kich"},{"id":"2fb53017b3be83cd754a08adab3e916c","name":"B\u00ed \u1ea8n","slug":"bi-an"},{"id":"a7b065b92ad356387ef2e075dee66529","name":"T\u00e2m L\u00fd","slug":"tam-ly"}],"country":[{"id":"445d337b5cd5de476f99333df6b0c2a7","name":"Canada","slug":"canada"},{"id":"74d9fa92f4dea9ecea8fc2233dc7921a","name":"\u00c2u M\u1ef9","slug":"au-my"}]},{"tmdb":{"type":"tv","id":"72755","season":3,"vote_average":7.3,"vote_count":336},"imdb":{"id":null},"created":{"time":"2025-11-15T01:14:55.000Z"},"modified":{"time":"2025-11-15T01:14:55.000Z"},"_id":"b7720952eb73703ed33b3f05ddd2690a","name":"Absentia (Ph\u1ea7n 1)","slug":"absentia-phan-1","origin_name":"Absentia (Season 1)","type":"series","poster_url":"upload\/vod\/20251115-1\/1375018a963cea968a30ad8bf3ca14d2.jpg","thumb_url":"upload\/vod\/20251115-1\/86770f7731a93857a731db4ca9eade9f.jpg","sub_docquyen":false,"chieurap":false,"time":"50 ph\u00fat\/t\u1eadp","episode_current":"Ho\u00e0n T\u1ea5t (10\/10)","quality":"FHD","lang":"Vietsub","year":2017,"category":[{"id":"7a035ac0b37f5854f0f6979260899c90","name":"H\u00ecnh S\u1ef1","slug":"hinh-su"},{"id":"37a7b38b6184a5ebd3c43015aa20709d","name":"Ch\u00ednh K\u1ecbch","slug":"chinh-kich"},{"id":"2fb53017b3be83cd754a08adab3e916c","name":"B\u00ed \u1ea8n","slug":"bi-an"},{"id":"a7b065b92ad356387ef2e075dee66529","name":"T\u00e2m L\u00fd","slug":"tam-ly"}],"country":[{"id":"445d337b5cd5de476f99333df6b0c2a7","name":"Canada","slug":"canada"},{"id":"74d9fa92f4dea9ecea8fc2233dc7921a","name":"\u00c2u M\u1ef9","slug":"au-my"}]},{"tmdb":{"type":"tv","id":"284927","season":1,"vote_average":0,"vote_count":0},"imdb":{"id":null},"created":{"time":"2025-11-14T19:30:16.000Z"},"modified":{"time":"2025-11-14T19:30:16.000Z"},"_id":"42b1394bf884c117a3acd38d2d91d13a","name":"Tr\u01b0\u1eddng An Qu\u1ef7 S\u1ef1 Truy\u1ec7n: Th\u1ea7n \u0110\u00f4","slug":"truong-an-quy-su-truyen-than-do","origin_name":"Treacherous Cases In Shendu","type":"series","poster_url":"upload\/vod\/20251114-1\/3cbc9d5d5ad900e4c0fa32bf81d74636.jpg","thumb_url":"upload\/vod\/20251114-1\/58980b85ee356c5faa75773b1744b42b.jpg","sub_docquyen":false,"chieurap":false,"time":"17 ph\u00fat\/t\u1eadp","episode_current":"T\u1eadp 8","quality":"FHD","lang":"Vietsub","year":2025,"category":[{"id":"2fb53017b3be83cd754a08adab3e916c","name":"B\u00ed \u1ea8n","slug":"bi-an"},{"id":"3a17c7283b71fa84e5a8d76fb790ed3e","name":"C\u1ed5 Trang","slug":"co-trang"},{"id":"a7b065b92ad356387ef2e075dee66529","name":"T\u00e2m L\u00fd","slug":"tam-ly"},{"id":"66c78b23908113d478d8d85390a244b4","name":"Phi\u00eau L\u01b0u","slug":"phieu-luu"}],"country":[{"id":"3e075636c731fe0f889c69e0bf82c083","name":"Trung Qu\u1ed1c","slug":"trung-quoc"}]},{"tmdb":{"type":"tv","id":"302246","season":1,"vote_average":0,"vote_count":0},"imdb":{"id":null},"created":{"time":"2025-11-14T19:22:31.000Z"},"modified":{"time":"2025-11-14T19:22:31.000Z"},"_id":"7428f98008346bb6aa6fc92d257505ab","name":"Thanh Uy\u00ean","slug":"thanh-uyen","origin_name":"Sonic Judgement","type":"series","poster_url":"upload\/vod\/20251114-1\/cad60f92d599657a386e28731a4fb5cc.jpg","thumb_url":"upload\/vod\/20251114-1\/69dafec346dbffef92957cd1e5cd6ddc.jpg","sub_docquyen":false,"chieurap":false,"time":"19 ph\u00fat\/t\u1eadp","episode_current":"Ho\u00e0n T\u1ea5t (24\/24)","quality":"FHD","lang":"Vietsub","year":2025,"category":[{"id":"37a7b38b6184a5ebd3c43015aa20709d","name":"Ch\u00ednh K\u1ecbch","slug":"chinh-kich"},{"id":"a7b065b92ad356387ef2e075dee66529","name":"T\u00e2m L\u00fd","slug":"tam-ly"}],"country":[{"id":"92aa3c93de523a414a520399bb6a4304","name":"Trung Qu\u00f4\u0301c","slug":"trung-quoc"}]},{"tmdb":{"type":"tv","id":"274380","season":1,"vote_average":8.286,"vote_count":7},"imdb":{"id":null},"created":{"time":"2025-11-14T14:40:56.000Z"},"modified":{"time":"2025-11-14T14:40:56.000Z"},"_id":"6e57a30d42233829bb65aab0262e463b","name":"Chi\u1ebfc H\u1ed9p \u0110en","slug":"chiec-hop-den-2025","origin_name":"The Black Box","type":"series","poster_url":"upload\/vod\/20251114-1\/f36d3cd102f2df0727579f1c5d63555b.jpg","thumb_url":"upload\/vod\/20251114-1\/33f1af2aec99c8286383a7048dcf0159.jpg","sub_docquyen":false,"chieurap":false,"time":"38 ph\u00fat\/t\u1eadp","episode_current":"T\u1eadp 6","quality":"FHD","lang":"Vietsub","year":2025,"category":[{"id":"0bcf4077916678de9b48c89221fcf8ae","name":"Khoa H\u1ecdc","slug":"khoa-hoc"},{"id":"68564911f00849030f9c9c144ea1b931","name":"Vi\u1ec5n T\u01b0\u1edfng","slug":"vien-tuong"},{"id":"37a7b38b6184a5ebd3c43015aa20709d","name":"Ch\u00ednh K\u1ecbch","slug":"chinh-kich"},{"id":"a7b065b92ad356387ef2e075dee66529","name":"T\u00e2m L\u00fd","slug":"tam-ly"}],"country":[{"id":"af5f08b6445ca1def86fdd38cc1dc0b2","name":"\u0110a\u0300i Loan","slug":"dai-loan"}]},{"tmdb":{"type":"tv","id":"303748","season":1,"vote_average":0,"vote_count":0},"imdb":{"id":null},"created":{"time":"2025-11-14T10:48:24.000Z"},"modified":{"time":"2025-11-15T17:06:47.000Z"},"_id":"fa517434b82355390c5cb9831685d6a0","name":"C\u00e1ch M\u1ea1ng T\u00ecnh Y\u00eau 4.0","slug":"cach-mang-tinh-yeu-40","origin_name":"The 4th Love Revolution (LOVE.exe)","type":"series","poster_url":"upload\/vod\/20251114-1\/856059aa749a5292fee1ed83657bdd3e.jpg","thumb_url":"upload\/vod\/20251114-1\/458228de8fefa269fbb1e4b899003a27.jpg","sub_docquyen":false,"chieurap":false,"time":"37 ph\u00fat\/t\u1eadp","episode_current":"T\u1eadp 4","quality":"FHD","lang":"Vietsub","year":2025,"category":[{"id":"ba6fd52e5a3aca80eaaf1a3b50a182db","name":"H\u00e0i H\u01b0\u1edbc","slug":"hai-huoc"},{"id":"bb2b4b030608ca5984c8dd0770f5b40b","name":"T\u00ecnh C\u1ea3m","slug":"tinh-cam"},{"id":"a7b065b92ad356387ef2e075dee66529","name":"T\u00e2m L\u00fd","slug":"tam-ly"}],"country":[{"id":"05de95be5fc404da9680bbb3dd8262e6","name":"H\u00e0n Qu\u1ed1c","slug":"han-quoc"}]},{"tmdb":{"type":"tv","id":"157367","season":2,"vote_average":6.2,"vote_count":65},"imdb":{"id":null},"created":{"time":"2025-11-14T10:43:41.000Z"},"modified":{"time":"2025-11-14T10:43:41.000Z"},"_id":"e6489c47ee1a4c3252b06e7ed387eb90","name":"Palm Royale (Ph\u1ea7n 2)","slug":"palm-royale-phan-2","origin_name":"Palm Royale (Season 2)","type":"series","poster_url":"upload\/vod\/20251114-1\/5617b4f0dd65cde7f3f77522694b29f7.jpg","thumb_url":"upload\/vod\/20251114-1\/d4f640374857cb1ca469913c622ec1d7.jpg","sub_docquyen":false,"chieurap":false,"time":"55 ph\u00fat\/t\u1eadp","episode_current":"T\u1eadp 1","quality":"FHD","lang":"Vietsub","year":2025,"category":[{"id":"37a7b38b6184a5ebd3c43015aa20709d","name":"Ch\u00ednh K\u1ecbch","slug":"chinh-kich"},{"id":"ba6fd52e5a3aca80eaaf1a3b50a182db","name":"H\u00e0i H\u01b0\u1edbc","slug":"hai-huoc"},{"id":"a7b065b92ad356387ef2e075dee66529","name":"T\u00e2m L\u00fd","slug":"tam-ly"}],"country":[{"id":"74d9fa92f4dea9ecea8fc2233dc7921a","name":"\u00c2u M\u1ef9","slug":"au-my"}]},{"tmdb":{"type":"tv","id":"157367","season":2,"vote_average":6.2,"vote_count":65},"imdb":{"id":null},"created":{"time":"2025-11-14T10:42:48.000Z"},"modified":{"time":"2025-11-14T10:42:48.000Z"},"_id":"1899267a7cab6c98197ea43751df1c07","name":"Palm Royale (Ph\u1ea7n 1)","slug":"palm-royale-phan-1","origin_name":"Palm Royale (Season 1)","type":"series","poster_url":"upload\/vod\/20251114-1\/996ef14ade352ee664a3bc745a5c24ae.jpg","thumb_url":"upload\/vod\/20251114-1\/6dbf162c7e98ea18d060149d197b571f.jpg","sub_docquyen":false,"chieurap":false,"time":"55 ph\u00fat\/t\u1eadp","episode_current":"Ho\u00e0n T\u1ea5t (10\/10)","quality":"FHD","lang":"Vietsub","year":2024,"category":[{"id":"37a7b38b6184a5ebd3c43015aa20709d","name":"Ch\u00ednh K\u1ecbch","slug":"chinh-kich"},{"id":"ba6fd52e5a3aca80eaaf1a3b50a182db","name":"H\u00e0i H\u01b0\u1edbc","slug":"hai-huoc"},{"id":"a7b065b92ad356387ef2e075dee66529","name":"T\u00e2m L\u00fd","slug":"tam-ly"}],"country":[{"id":"74d9fa92f4dea9ecea8fc2233dc7921a","name":"\u00c2u M\u1ef9","slug":"au-my"}]},{"tmdb":{"type":"tv","id":"226197","season":2,"vote_average":8.2,"vote_count":13},"imdb":{"id":null},"created":{"time":"2025-11-14T10:31:00.000Z"},"modified":{"time":"2025-11-15T15:28:53.000Z"},"_id":"950c011d814448023c466411a35b6c62","name":"N\u1eef Ho\u00e0ng Tin T\u1ee9c (Ph\u1ea7n 2)","slug":"nu-hoang-tin-tuc-phan-2","origin_name":"The Queen Of News (Season 2)","type":"series","poster_url":"upload\/vod\/20251114-1\/488247d3e51217b189e30fbd3774776d.jpg","thumb_url":"upload\/vod\/20251114-1\/4057c234b493167eae1e50321697f1ea.jpg","sub_docquyen":false,"chieurap":false,"time":"43 ph\u00fat\/t\u1eadp","episode_current":"T\u1eadp 5","quality":"FHD","lang":"L\u1ed3ng Ti\u1ebfng","year":2025,"category":[{"id":"37a7b38b6184a5ebd3c43015aa20709d","name":"Ch\u00ednh K\u1ecbch","slug":"chinh-kich"},{"id":"a7b065b92ad356387ef2e075dee66529","name":"T\u00e2m L\u00fd","slug":"tam-ly"}],"country":[{"id":"a0cd53c9875b96640ac264ca81996f9f","name":"H\u00f4\u0300ng K\u00f4ng","slug":"hong-kong"}]}],"params":{"type_slug":"danh-sach","filterCategory":[""],"filterCountry":[""],"filterYear":[""],"filterType":[""],"sortField":"_id","sortType":"desc","pagination":{"totalItems":7294,"totalItemsPerPage":20,"currentPage":2,"totalPages":365}},"type_list":"phim-bo","APP_DOMAIN_FRONTEND":"https:\/\/phimapi.com","APP_DOMAIN_CDN_IMAGE":"https:\/\/phimimg.com"}}