{"status":"success","msg":"done","data":{"seoOnPage":{"og_type":"website","titleHead":"Phim t\u1ed9i | t\u1ed9i vietsub | Phim t\u1ed9i hay | Tuy\u1ec3n t\u1eadp t\u1ed9i m\u1edbi nh\u1ea5t 2025","descriptionHead":"Phim t\u1ed9i hay tuy\u1ec3n t\u1eadp, phim t\u1ed9i m\u1edbi nh\u1ea5t, t\u1ed5ng h\u1ee3p phim t\u1ed9i, t\u1ed9i full HD, t\u1ed9i vietsub, xem t\u1ed9i online","og_image":["\/upload\/vod\/20251116-1\/1dfa124b40b4c2cc708df151fcc67268.jpg","\/upload\/vod\/20251116-1\/1ab0292dba1816075e1d0d8d7f1705ef.jpg","\/upload\/vod\/20251116-1\/6dce7def695f9ee63b0183ad624da89b.jpg","\/upload\/vod\/20251116-1\/6f4327f5cfa3a7ae0abad184a91497fd.jpg","\/upload\/vod\/20250928-1\/fc897b8d00a63c3a24f65f279424298e.jpg"],"og_url":"tim-kiem?keyword=t\u1ed9i"},"breadCrumb":[{"name":"T\u00ecm ki\u1ebfm t\u1eeb kh\u00f3a: t\u1ed9i - Trang 1","isCurrent":true,"position":2}],"titlePage":"T\u00ecm ki\u1ebfm t\u1eeb kh\u00f3a: t\u1ed9i","items":[{"tmdb":{"type":"tv","id":"87508","season":3,"vote_average":7.836,"vote_count":113},"imdb":{"id":null},"created":{"time":"2025-11-16T17:59:25.000Z"},"modified":{"time":"2025-11-16T17:59:25.000Z"},"_id":"c1481a88d8e582ce58f9413d5ac93360","name":"T\u1ed9i \u00c1c Delhi (Ph\u1ea7n 3)","slug":"toi-ac-delhi-phan-3","origin_name":"Delhi Crime","type":"series","poster_url":"upload\/vod\/20251116-1\/1dfa124b40b4c2cc708df151fcc67268.jpg","thumb_url":"upload\/vod\/20251116-1\/35e314c4706f713aba8692e6b113a37a.jpg","sub_docquyen":false,"chieurap":false,"time":"51 ph\u00fat\/t\u1eadp","episode_current":"Ho\u00e0n T\u1ea5t (6\/6)","quality":"FHD","lang":"Vietsub","year":2025,"category":[{"id":"7a035ac0b37f5854f0f6979260899c90","name":"H\u00ecnh S\u1ef1","slug":"hinh-su"},{"id":"37a7b38b6184a5ebd3c43015aa20709d","name":"Ch\u00ednh K\u1ecbch","slug":"chinh-kich"},{"id":"a7b065b92ad356387ef2e075dee66529","name":"T\u00e2m L\u00fd","slug":"tam-ly"}],"country":[{"id":"445d337b5cd5de476f99333df6b0c2a7","name":"Canada","slug":"canada"},{"id":"aadd510492662beef1a980624b26c685","name":"\u1ea4n \u0110\u1ed9","slug":"an-do"},{"id":"74d9fa92f4dea9ecea8fc2233dc7921a","name":"\u00c2u M\u1ef9","slug":"au-my"}]},{"tmdb":{"type":"tv","id":"87508","season":3,"vote_average":7.836,"vote_count":113},"imdb":{"id":null},"created":{"time":"2023-12-07T22:00:26.000Z"},"modified":{"time":"2025-11-16T17:58:04.000Z"},"_id":"687fe34a901a03abed262a62e22f90db","name":"T\u1ed9i \u00c1c Delhi (Ph\u1ea7n 2)","slug":"toi-ac-delhi-phan-2","origin_name":"Delhi Crime (Season 2)","type":"series","poster_url":"upload\/vod\/20251116-1\/1ab0292dba1816075e1d0d8d7f1705ef.jpg","thumb_url":"upload\/vod\/20251116-1\/982a06b94a9055c86df51555c33d8bab.jpg","sub_docquyen":false,"chieurap":false,"time":"51 ph\u00fat\/t\u1eadp","episode_current":"Ho\u00e0n T\u1ea5t (5\/5)","quality":"FHD","lang":"Vietsub","year":2022,"category":[{"id":"7a035ac0b37f5854f0f6979260899c90","name":"H\u00ecnh S\u1ef1","slug":"hinh-su"},{"id":"a7b065b92ad356387ef2e075dee66529","name":"T\u00e2m L\u00fd","slug":"tam-ly"},{"id":"37a7b38b6184a5ebd3c43015aa20709d","name":"Ch\u00ednh K\u1ecbch","slug":"chinh-kich"}],"country":[{"id":"445d337b5cd5de476f99333df6b0c2a7","name":"Canada","slug":"canada"},{"id":"aadd510492662beef1a980624b26c685","name":"\u1ea4n \u0110\u1ed9","slug":"an-do"},{"id":"74d9fa92f4dea9ecea8fc2233dc7921a","name":"\u00c2u M\u1ef9","slug":"au-my"}]},{"tmdb":{"type":"tv","id":"87508","season":3,"vote_average":7.836,"vote_count":113},"imdb":{"id":null},"created":{"time":"2025-01-16T00:47:24.000Z"},"modified":{"time":"2025-11-16T17:56:27.000Z"},"_id":"358eabeadbcb172e3e49ac722b445fea","name":"T\u1ed9i \u00c1c Delhi (Ph\u1ea7n 1)","slug":"toi-ac-delhi-phan-1","origin_name":"Delhi Crime (Season 1)","type":"series","poster_url":"upload\/vod\/20251116-1\/6dce7def695f9ee63b0183ad624da89b.jpg","thumb_url":"upload\/vod\/20251116-1\/9a11e8b870ab6682d12768d24ba20bb2.jpg","sub_docquyen":false,"chieurap":false,"time":"51 ph\u00fat\/t\u1eadp","episode_current":"Ho\u00e0n T\u1ea5t (7\/7)","quality":"FHD","lang":"Vietsub","year":2019,"category":[{"id":"7a035ac0b37f5854f0f6979260899c90","name":"H\u00ecnh S\u1ef1","slug":"hinh-su"},{"id":"a7b065b92ad356387ef2e075dee66529","name":"T\u00e2m L\u00fd","slug":"tam-ly"},{"id":"37a7b38b6184a5ebd3c43015aa20709d","name":"Ch\u00ednh K\u1ecbch","slug":"chinh-kich"}],"country":[{"id":"445d337b5cd5de476f99333df6b0c2a7","name":"Canada","slug":"canada"},{"id":"aadd510492662beef1a980624b26c685","name":"\u1ea4n \u0110\u1ed9","slug":"an-do"},{"id":"74d9fa92f4dea9ecea8fc2233dc7921a","name":"\u00c2u M\u1ef9","slug":"au-my"}]},{"tmdb":{"type":"tv","id":"271008","season":1,"vote_average":0,"vote_count":0},"imdb":{"id":null},"created":{"time":"2025-11-16T17:51:15.000Z"},"modified":{"time":"2025-11-16T17:51:15.000Z"},"_id":"68af3564fb6024e891d093f8c3b8bc42","name":"T\u00f4i L\u00e0m B\u1ea3o M\u1eabu \u1ede L\u00e3nh Cung","slug":"toi-lam-bao-mau-o-lanh-cung","origin_name":"Babysitter","type":"series","poster_url":"upload\/vod\/20251116-1\/6f4327f5cfa3a7ae0abad184a91497fd.jpg","thumb_url":"upload\/vod\/20251116-1\/83c7886a0557eb9b7f03a6922a21f1c0.jpg","sub_docquyen":false,"chieurap":false,"time":"13 ph\u00fat\/t\u1eadp","episode_current":"T\u1eadp 10","quality":"FHD","lang":"Vietsub","year":2025,"category":[{"id":"ba6fd52e5a3aca80eaaf1a3b50a182db","name":"H\u00e0i H\u01b0\u1edbc","slug":"hai-huoc"},{"id":"37a7b38b6184a5ebd3c43015aa20709d","name":"Ch\u00ednh K\u1ecbch","slug":"chinh-kich"},{"id":"3a17c7283b71fa84e5a8d76fb790ed3e","name":"C\u1ed5 Trang","slug":"co-trang"},{"id":"a7b065b92ad356387ef2e075dee66529","name":"T\u00e2m L\u00fd","slug":"tam-ly"}],"country":[{"id":"3e075636c731fe0f889c69e0bf82c083","name":"Trung Qu\u1ed1c","slug":"trung-quoc"}]},{"tmdb":{"type":"tv","id":"281599","season":1,"vote_average":0,"vote_count":0},"imdb":{"id":null},"created":{"time":"2025-09-28T18:03:12.000Z"},"modified":{"time":"2025-11-16T15:00:37.000Z"},"_id":"0a7c5acfd5d2e3f8c5efb3a9f9f465f3","name":"Ta \u1ede Thi\u00ean \u0110\u00ecnh Thu Ph\u1ebf Ph\u1ea9m (T\u00f4i Thu Mua Ph\u1ebf Li\u1ec7u \u1ede Thi\u00ean \u0110\u00ecnh)","slug":"ta-o-thien-dinh-thu-phe-pham-toi-thu-mua-phe-lieu-o-thien-dinh","origin_name":"Recycling Scrap in the Celestial Court (Heaven Scrap Master)","type":"hoathinh","poster_url":"upload\/vod\/20250928-1\/fc897b8d00a63c3a24f65f279424298e.jpg","thumb_url":"upload\/vod\/20250928-1\/0bd472f83f52bc4fddc60af748681252.jpg","sub_docquyen":false,"chieurap":false,"time":"11 ph\u00fat\/t\u1eadp","episode_current":"T\u1eadp 17","quality":"FHD","lang":"Vietsub","year":2025,"category":[{"id":"37a7b38b6184a5ebd3c43015aa20709d","name":"Ch\u00ednh K\u1ecbch","slug":"chinh-kich"},{"id":"66c78b23908113d478d8d85390a244b4","name":"Phi\u00eau L\u01b0u","slug":"phieu-luu"},{"id":"68564911f00849030f9c9c144ea1b931","name":"Vi\u1ec5n T\u01b0\u1edfng","slug":"vien-tuong"},{"id":"a7b065b92ad356387ef2e075dee66529","name":"T\u00e2m L\u00fd","slug":"tam-ly"}],"country":[{"id":"3e075636c731fe0f889c69e0bf82c083","name":"Trung Qu\u1ed1c","slug":"trung-quoc"}]}],"params":{"type_slug":"tim-kiem","keyword":"t\u1ed9i","filterCategory":[""],"filterCountry":[""],"filterYear":[""],"filterType":[""],"sortField":"modified.time","sortType":"desc","pagination":{"totalItems":1001,"totalItemsPerPage":5,"currentPage":1,"totalPages":201}},"type_list":"","APP_DOMAIN_FRONTEND":"https:\/\/phimapi.com","APP_DOMAIN_CDN_IMAGE":"https:\/\/phimimg.com"}}