{"status":true,"msg":"done","data":{"seoOnPage":{"og_type":"website","titleHead":"Phim b\u1ed9 | Phim b\u1ed9 hay tuy\u1ec3n ch\u1ecdn | Phim b\u1ed9 m\u1edbi nh\u1ea5t 2025","descriptionHead":"Phim b\u1ed9 m\u1edbi nh\u1ea5t tuy\u1ec3n ch\u1ecdn ch\u1ea5t l\u01b0\u1ee3ng cao, phim b\u1ed9 tr\u1ecdn b\u1ed9 vietsub c\u1eadp nh\u1eadt nhanh nh\u1ea5t. Phim b\u1ed9 vietsub nhanh nh\u1ea5t","og_image":["\/upload\/vod\/20251116-1\/1dfa124b40b4c2cc708df151fcc67268.jpg","\/upload\/vod\/20251116-1\/6f4327f5cfa3a7ae0abad184a91497fd.jpg","\/upload\/vod\/20251116-1\/2d5fb1914036a017537e9d5132111e17.jpg","\/upload\/vod\/20251116-1\/e18043a65afb0bedaa8090b3eea308df.jpg","\/upload\/vod\/20251116-1\/bb3a3a56df2199f635e37424c2ae34b5.jpg","\/upload\/vod\/20251115-1\/0d873da8c88ef4c472b8c12c95cfa4ee.jpg","\/upload\/vod\/20251115-1\/ba88e3f37bfb0a7c40e286b3948fecf1.jpg","\/upload\/vod\/20251115-1\/d07973bfa656b57798a75bfc6bce114f.jpg","\/upload\/vod\/20251115-1\/42ba1bfb0c3ef143173b581f02f63e69.jpg","\/upload\/vod\/20251115-1\/7b963875c1b0605863be430a38b11adf.jpg","\/upload\/vod\/20251114-1\/3cbc9d5d5ad900e4c0fa32bf81d74636.jpg","\/upload\/vod\/20251114-1\/cad60f92d599657a386e28731a4fb5cc.jpg","\/upload\/vod\/20251114-1\/f36d3cd102f2df0727579f1c5d63555b.jpg","\/upload\/vod\/20251114-1\/856059aa749a5292fee1ed83657bdd3e.jpg","\/upload\/vod\/20251114-1\/5617b4f0dd65cde7f3f77522694b29f7.jpg","\/upload\/vod\/20251114-1\/693dec98ee9fcf4afcd8d04d44cfb282.jpg","\/upload\/vod\/20251114-1\/d3b1d7283eec17538168c56a5f0a2792.jpg","\/upload\/vod\/20251114-1\/6af7dbc89cb8c4a1a41fc53c2ca76838.jpg","\/upload\/vod\/20251114-1\/6152717bc872ffae12fca8be1c68544f.jpg","\/upload\/vod\/20251114-1\/c61008a6f579dc11da86fe07ea9ce456.jpg"],"og_url":"danh-sach\/phim-bo"},"breadCrumb":[{"name":"Phim B\u1ed9","slug":"\/danh-sach\/phim-bo","isCurrent":false,"position":2},{"name":"Trang 1","isCurrent":true,"position":3}],"titlePage":"Phim B\u1ed9","items":[{"tmdb":{"type":"tv","id":"87508","season":3,"vote_average":7.836,"vote_count":113},"imdb":{"id":null},"created":{"time":"2025-11-16T17:59:25.000Z"},"modified":{"time":"2025-11-16T17:59:25.000Z"},"_id":"c1481a88d8e582ce58f9413d5ac93360","name":"T\u1ed9i \u00c1c Delhi (Ph\u1ea7n 3)","slug":"toi-ac-delhi-phan-3","origin_name":"Delhi Crime","type":"series","poster_url":"upload\/vod\/20251116-1\/1dfa124b40b4c2cc708df151fcc67268.jpg","thumb_url":"upload\/vod\/20251116-1\/35e314c4706f713aba8692e6b113a37a.jpg","sub_docquyen":false,"chieurap":false,"time":"51 ph\u00fat\/t\u1eadp","episode_current":"Ho\u00e0n T\u1ea5t (6\/6)","quality":"FHD","lang":"Vietsub","year":2025,"category":[{"id":"7a035ac0b37f5854f0f6979260899c90","name":"H\u00ecnh S\u1ef1","slug":"hinh-su"},{"id":"37a7b38b6184a5ebd3c43015aa20709d","name":"Ch\u00ednh K\u1ecbch","slug":"chinh-kich"},{"id":"a7b065b92ad356387ef2e075dee66529","name":"T\u00e2m L\u00fd","slug":"tam-ly"}],"country":[{"id":"445d337b5cd5de476f99333df6b0c2a7","name":"Canada","slug":"canada"},{"id":"aadd510492662beef1a980624b26c685","name":"\u1ea4n \u0110\u1ed9","slug":"an-do"},{"id":"74d9fa92f4dea9ecea8fc2233dc7921a","name":"\u00c2u M\u1ef9","slug":"au-my"}]},{"tmdb":{"type":"tv","id":"271008","season":1,"vote_average":0,"vote_count":0},"imdb":{"id":null},"created":{"time":"2025-11-16T17:51:15.000Z"},"modified":{"time":"2025-11-16T17:51:15.000Z"},"_id":"68af3564fb6024e891d093f8c3b8bc42","name":"T\u00f4i L\u00e0m B\u1ea3o M\u1eabu \u1ede L\u00e3nh Cung","slug":"toi-lam-bao-mau-o-lanh-cung","origin_name":"Babysitter","type":"series","poster_url":"upload\/vod\/20251116-1\/6f4327f5cfa3a7ae0abad184a91497fd.jpg","thumb_url":"upload\/vod\/20251116-1\/83c7886a0557eb9b7f03a6922a21f1c0.jpg","sub_docquyen":false,"chieurap":false,"time":"13 ph\u00fat\/t\u1eadp","episode_current":"T\u1eadp 10","quality":"FHD","lang":"Vietsub","year":2025,"category":[{"id":"ba6fd52e5a3aca80eaaf1a3b50a182db","name":"H\u00e0i H\u01b0\u1edbc","slug":"hai-huoc"},{"id":"37a7b38b6184a5ebd3c43015aa20709d","name":"Ch\u00ednh K\u1ecbch","slug":"chinh-kich"},{"id":"3a17c7283b71fa84e5a8d76fb790ed3e","name":"C\u1ed5 Trang","slug":"co-trang"},{"id":"a7b065b92ad356387ef2e075dee66529","name":"T\u00e2m L\u00fd","slug":"tam-ly"}],"country":[{"id":"3e075636c731fe0f889c69e0bf82c083","name":"Trung Qu\u1ed1c","slug":"trung-quoc"}]},{"tmdb":{"type":"tv","id":"305294","season":1,"vote_average":0,"vote_count":0},"imdb":{"id":null},"created":{"time":"2025-11-16T17:46:42.000Z"},"modified":{"time":"2025-11-16T17:46:42.000Z"},"_id":"1e067906fa07c8fbd7a3cb7952fe4ea1","name":"Nh\u1eadp M\u1ed9ng S\u01b0: Ph\u1ea5t Y V\u00e0 A Th\u1ea5t","slug":"nhap-mong-su-phat-y-va-a-that","origin_name":"The Dreamwalker","type":"series","poster_url":"upload\/vod\/20251116-1\/2d5fb1914036a017537e9d5132111e17.jpg","thumb_url":"upload\/vod\/20251116-1\/09a770fd5383384bac41fb0e20ede42d.jpg","sub_docquyen":false,"chieurap":false,"time":"12 ph\u00fat\/t\u1eadp","episode_current":"T\u1eadp 8","quality":"FHD","lang":"Vietsub","year":2025,"category":[{"id":"37a7b38b6184a5ebd3c43015aa20709d","name":"Ch\u00ednh K\u1ecbch","slug":"chinh-kich"},{"id":"3a17c7283b71fa84e5a8d76fb790ed3e","name":"C\u1ed5 Trang","slug":"co-trang"},{"id":"a7b065b92ad356387ef2e075dee66529","name":"T\u00e2m L\u00fd","slug":"tam-ly"}],"country":[{"id":"3e075636c731fe0f889c69e0bf82c083","name":"Trung Qu\u1ed1c","slug":"trung-quoc"}]},{"tmdb":{"type":"tv","id":"252321","season":1,"vote_average":0,"vote_count":0},"imdb":{"id":null},"created":{"time":"2025-11-16T15:18:56.000Z"},"modified":{"time":"2025-11-16T15:18:56.000Z"},"_id":"56bb5873cd75a9d4d2297208d6ba3908","name":"Ch\u1edb Qu\u1ea5y R\u1ea7y Ta Phi Th\u0103ng","slug":"cho-quay-ray-ta-phi-thang","origin_name":"Flying Up Without Disturb","type":"series","poster_url":"upload\/vod\/20251116-1\/e18043a65afb0bedaa8090b3eea308df.jpg","thumb_url":"upload\/vod\/20251116-1\/387f76daf27f3664b8af826e7937204a.jpg","sub_docquyen":false,"chieurap":false,"time":"41 ph\u00fat\/t\u1eadp","episode_current":"T\u1eadp 8","quality":"FHD","lang":"Vietsub","year":2025,"category":[{"id":"37a7b38b6184a5ebd3c43015aa20709d","name":"Ch\u00ednh K\u1ecbch","slug":"chinh-kich"},{"id":"3a17c7283b71fa84e5a8d76fb790ed3e","name":"C\u1ed5 Trang","slug":"co-trang"},{"id":"bb2b4b030608ca5984c8dd0770f5b40b","name":"T\u00ecnh C\u1ea3m","slug":"tinh-cam"},{"id":"a7b065b92ad356387ef2e075dee66529","name":"T\u00e2m L\u00fd","slug":"tam-ly"}],"country":[{"id":"3e075636c731fe0f889c69e0bf82c083","name":"Trung Qu\u1ed1c","slug":"trung-quoc"}]},{"tmdb":{"type":"tv","id":"250670","season":3,"vote_average":8.354,"vote_count":572},"imdb":{"id":null},"created":{"time":"2025-11-16T14:56:07.000Z"},"modified":{"time":"2025-11-16T14:56:07.000Z"},"_id":"849e8eb895308e298f803b71ac4de06a","name":"Maxton Hall: Th\u1ebf Gi\u1edbi Gi\u1eefa Ch\u00fang Ta (Ph\u1ea7n 2)","slug":"maxton-hall-the-gioi-giua-chung-ta-phan-2","origin_name":"Maxton Hall: The World Between Us (Season 2)","type":"series","poster_url":"upload\/vod\/20251116-1\/bb3a3a56df2199f635e37424c2ae34b5.jpg","thumb_url":"upload\/vod\/20251116-1\/8d7f4f9b8ef94e0f77853157575c1b43.jpg","sub_docquyen":false,"chieurap":false,"time":"47 ph\u00fat\/t\u1eadp","episode_current":"T\u1eadp 4","quality":"FHD","lang":"Vietsub","year":2025,"category":[{"id":"37a7b38b6184a5ebd3c43015aa20709d","name":"Ch\u00ednh K\u1ecbch","slug":"chinh-kich"},{"id":"bb2b4b030608ca5984c8dd0770f5b40b","name":"T\u00ecnh C\u1ea3m","slug":"tinh-cam"},{"id":"a7b065b92ad356387ef2e075dee66529","name":"T\u00e2m L\u00fd","slug":"tam-ly"}],"country":[{"id":"24a5bf049aeef94ab79bad1f73f16b92","name":"\u0110\u1ee9c","slug":"duc"}]},{"tmdb":{"type":"tv","id":"225171","season":1,"vote_average":8.7,"vote_count":81},"imdb":{"id":null},"created":{"time":"2025-11-15T16:29:17.000Z"},"modified":{"time":"2025-11-15T16:48:15.000Z"},"_id":"f713432c65b6b19adb6c491500b956f6","name":"K\u1ebb L\u1ea1c Lo\u00e0i","slug":"ke-lac-loai-2025","origin_name":"Pluribus","type":"series","poster_url":"upload\/vod\/20251115-1\/0d873da8c88ef4c472b8c12c95cfa4ee.jpg","thumb_url":"upload\/vod\/20251115-1\/b1da04dbf9100ae2ab31950aca740075.jpg","sub_docquyen":false,"chieurap":false,"time":"56 ph\u00fat\/t\u1eadp","episode_current":"T\u1eadp 3","quality":"FHD","lang":"Vietsub","year":2025,"category":[{"id":"37a7b38b6184a5ebd3c43015aa20709d","name":"Ch\u00ednh K\u1ecbch","slug":"chinh-kich"},{"id":"0bcf4077916678de9b48c89221fcf8ae","name":"Khoa H\u1ecdc","slug":"khoa-hoc"},{"id":"68564911f00849030f9c9c144ea1b931","name":"Vi\u1ec5n T\u01b0\u1edfng","slug":"vien-tuong"},{"id":"a7b065b92ad356387ef2e075dee66529","name":"T\u00e2m L\u00fd","slug":"tam-ly"}],"country":[{"id":"74d9fa92f4dea9ecea8fc2233dc7921a","name":"\u00c2u M\u1ef9","slug":"au-my"}]},{"tmdb":{"type":"tv","id":"271015","season":1,"vote_average":0,"vote_count":0},"imdb":{"id":null},"created":{"time":"2025-11-15T15:16:27.000Z"},"modified":{"time":"2025-11-16T23:27:20.000Z"},"_id":"436c26abd464041efd354bc550f76482","name":"Ph\u01b0\u1ee3ng Ho\u00e0ng \u0110\u00e0i Th\u01b0\u1ee3ng","slug":"phuong-hoang-dai-thuong","origin_name":"Love And Crown","type":"series","poster_url":"upload\/vod\/20251115-1\/ba88e3f37bfb0a7c40e286b3948fecf1.jpg","thumb_url":"upload\/vod\/20251115-1\/6de7ff42bbede5b0d2b8dfa5b9215bac.jpg","sub_docquyen":false,"chieurap":false,"time":"45 ph\u00fat\/t\u1eadp","episode_current":"T\u1eadp 8","quality":"FHD","lang":"Vietsub + Thuy\u1ebft Minh","year":2025,"category":[{"id":"37a7b38b6184a5ebd3c43015aa20709d","name":"Ch\u00ednh K\u1ecbch","slug":"chinh-kich"},{"id":"3a17c7283b71fa84e5a8d76fb790ed3e","name":"C\u1ed5 Trang","slug":"co-trang"},{"id":"a7b065b92ad356387ef2e075dee66529","name":"T\u00e2m L\u00fd","slug":"tam-ly"},{"id":"66c78b23908113d478d8d85390a244b4","name":"Phi\u00eau L\u01b0u","slug":"phieu-luu"}],"country":[{"id":"3e075636c731fe0f889c69e0bf82c083","name":"Trung Qu\u1ed1c","slug":"trung-quoc"}]},{"tmdb":{"type":"tv","id":"304514","season":1,"vote_average":0,"vote_count":0},"imdb":{"id":null},"created":{"time":"2025-11-15T12:20:54.000Z"},"modified":{"time":"2025-11-15T12:20:54.000Z"},"_id":"e90a598324002f2bee63f39b95a52ff1","name":"Ph\u00e1o Hoa H\u01b0\u1edbng T\u1edbi C\u00e1c V\u00ec Sao","slug":"phao-hoa-huong-toi-cac-vi-sao","origin_name":"Fireworks Stars","type":"series","poster_url":"upload\/vod\/20251115-1\/d07973bfa656b57798a75bfc6bce114f.jpg","thumb_url":"upload\/vod\/20251115-1\/7f7dc96d0db75836cc2982df37a495dc.jpg","sub_docquyen":false,"chieurap":false,"time":"10 ph\u00fat\/t\u1eadp","episode_current":"Ho\u00e0n T\u1ea5t (24\/24)","quality":"FHD","lang":"Vietsub","year":2025,"category":[{"id":"37a7b38b6184a5ebd3c43015aa20709d","name":"Ch\u00ednh K\u1ecbch","slug":"chinh-kich"},{"id":"bb2b4b030608ca5984c8dd0770f5b40b","name":"T\u00ecnh C\u1ea3m","slug":"tinh-cam"},{"id":"a7b065b92ad356387ef2e075dee66529","name":"T\u00e2m L\u00fd","slug":"tam-ly"}],"country":[{"id":"3e075636c731fe0f889c69e0bf82c083","name":"Trung Qu\u1ed1c","slug":"trung-quoc"}]},{"tmdb":{"type":"tv","id":"274979","season":1,"vote_average":7,"vote_count":1},"imdb":{"id":null},"created":{"time":"2025-11-15T02:24:06.000Z"},"modified":{"time":"2025-11-15T02:24:06.000Z"},"_id":"7c6c8cbaba5894074d4ce2e7b748a206","name":"Chim C\u00fac Cu Pha L\u00ea (El cuco de cristal)","slug":"chim-cuc-cu-pha-le-el-cuco-de-cristal","origin_name":"The Crystal Cuckoo","type":"series","poster_url":"upload\/vod\/20251115-1\/42ba1bfb0c3ef143173b581f02f63e69.jpg","thumb_url":"upload\/vod\/20251115-1\/d0bcfadd70c28f2f5bc4742598362cb2.jpg","sub_docquyen":false,"chieurap":false,"time":"45 ph\u00fat\/t\u1eadp","episode_current":"Ho\u00e0n T\u1ea5t (6\/6)","quality":"FHD","lang":"Vietsub","year":2025,"category":[{"id":"37a7b38b6184a5ebd3c43015aa20709d","name":"Ch\u00ednh K\u1ecbch","slug":"chinh-kich"},{"id":"a7b065b92ad356387ef2e075dee66529","name":"T\u00e2m L\u00fd","slug":"tam-ly"}],"country":[{"id":"8a40abac202ab3659bb98f71f05458d1","name":"T\u00e2y Ban Nha","slug":"tay-ban-nha"}]},{"tmdb":{"type":"tv","id":"283392","season":1,"vote_average":0,"vote_count":0},"imdb":{"id":null},"created":{"time":"2025-11-15T01:21:23.000Z"},"modified":{"time":"2025-11-15T16:50:35.000Z"},"_id":"10cc05b82e144366c50629b9e87c56ed","name":"B\u00ed Quy\u1ebft Tr\u00fang S\u1ed1","slug":"bi-quyet-trung-so","origin_name":"How To Win The Lottery \/ Me late que s\u00ed","type":"series","poster_url":"upload\/vod\/20251115-1\/7b963875c1b0605863be430a38b11adf.jpg","thumb_url":"upload\/vod\/20251115-1\/804aa8327ba7734156bd51fd63697c23.jpg","sub_docquyen":false,"chieurap":false,"time":"45 ph\u00fat\/t\u1eadp","episode_current":"Ho\u00e0n T\u1ea5t (6\/6)","quality":"FHD","lang":"Vietsub","year":2025,"category":[{"id":"37a7b38b6184a5ebd3c43015aa20709d","name":"Ch\u00ednh K\u1ecbch","slug":"chinh-kich"},{"id":"ba6fd52e5a3aca80eaaf1a3b50a182db","name":"H\u00e0i H\u01b0\u1edbc","slug":"hai-huoc"},{"id":"a7b065b92ad356387ef2e075dee66529","name":"T\u00e2m L\u00fd","slug":"tam-ly"}],"country":[{"id":"8a40abac202ab3659bb98f71f05458d1","name":"T\u00e2y Ban Nha","slug":"tay-ban-nha"}]},{"tmdb":{"type":"tv","id":"284927","season":1,"vote_average":0,"vote_count":0},"imdb":{"id":null},"created":{"time":"2025-11-14T19:30:16.000Z"},"modified":{"time":"2025-11-14T19:30:16.000Z"},"_id":"42b1394bf884c117a3acd38d2d91d13a","name":"Tr\u01b0\u1eddng An Qu\u1ef7 S\u1ef1 Truy\u1ec7n: Th\u1ea7n \u0110\u00f4","slug":"truong-an-quy-su-truyen-than-do","origin_name":"Treacherous Cases In Shendu","type":"series","poster_url":"upload\/vod\/20251114-1\/3cbc9d5d5ad900e4c0fa32bf81d74636.jpg","thumb_url":"upload\/vod\/20251114-1\/58980b85ee356c5faa75773b1744b42b.jpg","sub_docquyen":false,"chieurap":false,"time":"17 ph\u00fat\/t\u1eadp","episode_current":"T\u1eadp 8","quality":"FHD","lang":"Vietsub","year":2025,"category":[{"id":"2fb53017b3be83cd754a08adab3e916c","name":"B\u00ed \u1ea8n","slug":"bi-an"},{"id":"3a17c7283b71fa84e5a8d76fb790ed3e","name":"C\u1ed5 Trang","slug":"co-trang"},{"id":"a7b065b92ad356387ef2e075dee66529","name":"T\u00e2m L\u00fd","slug":"tam-ly"},{"id":"66c78b23908113d478d8d85390a244b4","name":"Phi\u00eau L\u01b0u","slug":"phieu-luu"}],"country":[{"id":"3e075636c731fe0f889c69e0bf82c083","name":"Trung Qu\u1ed1c","slug":"trung-quoc"}]},{"tmdb":{"type":"tv","id":"302246","season":1,"vote_average":0,"vote_count":0},"imdb":{"id":null},"created":{"time":"2025-11-14T19:22:31.000Z"},"modified":{"time":"2025-11-14T19:22:31.000Z"},"_id":"7428f98008346bb6aa6fc92d257505ab","name":"Thanh Uy\u00ean","slug":"thanh-uyen","origin_name":"Sonic Judgement","type":"series","poster_url":"upload\/vod\/20251114-1\/cad60f92d599657a386e28731a4fb5cc.jpg","thumb_url":"upload\/vod\/20251114-1\/69dafec346dbffef92957cd1e5cd6ddc.jpg","sub_docquyen":false,"chieurap":false,"time":"19 ph\u00fat\/t\u1eadp","episode_current":"Ho\u00e0n T\u1ea5t (24\/24)","quality":"FHD","lang":"Vietsub","year":2025,"category":[{"id":"37a7b38b6184a5ebd3c43015aa20709d","name":"Ch\u00ednh K\u1ecbch","slug":"chinh-kich"},{"id":"a7b065b92ad356387ef2e075dee66529","name":"T\u00e2m L\u00fd","slug":"tam-ly"}],"country":[{"id":"92aa3c93de523a414a520399bb6a4304","name":"Trung Qu\u00f4\u0301c","slug":"trung-quoc"}]},{"tmdb":{"type":"tv","id":"274380","season":1,"vote_average":8.286,"vote_count":7},"imdb":{"id":null},"created":{"time":"2025-11-14T14:40:56.000Z"},"modified":{"time":"2025-11-14T14:40:56.000Z"},"_id":"6e57a30d42233829bb65aab0262e463b","name":"Chi\u1ebfc H\u1ed9p \u0110en","slug":"chiec-hop-den-2025","origin_name":"The Black Box","type":"series","poster_url":"upload\/vod\/20251114-1\/f36d3cd102f2df0727579f1c5d63555b.jpg","thumb_url":"upload\/vod\/20251114-1\/33f1af2aec99c8286383a7048dcf0159.jpg","sub_docquyen":false,"chieurap":false,"time":"38 ph\u00fat\/t\u1eadp","episode_current":"T\u1eadp 6","quality":"FHD","lang":"Vietsub","year":2025,"category":[{"id":"0bcf4077916678de9b48c89221fcf8ae","name":"Khoa H\u1ecdc","slug":"khoa-hoc"},{"id":"68564911f00849030f9c9c144ea1b931","name":"Vi\u1ec5n T\u01b0\u1edfng","slug":"vien-tuong"},{"id":"37a7b38b6184a5ebd3c43015aa20709d","name":"Ch\u00ednh K\u1ecbch","slug":"chinh-kich"},{"id":"a7b065b92ad356387ef2e075dee66529","name":"T\u00e2m L\u00fd","slug":"tam-ly"}],"country":[{"id":"af5f08b6445ca1def86fdd38cc1dc0b2","name":"\u0110a\u0300i Loan","slug":"dai-loan"}]},{"tmdb":{"type":"tv","id":"303748","season":1,"vote_average":0,"vote_count":0},"imdb":{"id":null},"created":{"time":"2025-11-14T10:48:24.000Z"},"modified":{"time":"2025-11-15T17:06:47.000Z"},"_id":"fa517434b82355390c5cb9831685d6a0","name":"C\u00e1ch M\u1ea1ng T\u00ecnh Y\u00eau 4.0","slug":"cach-mang-tinh-yeu-40","origin_name":"The 4th Love Revolution (LOVE.exe)","type":"series","poster_url":"upload\/vod\/20251114-1\/856059aa749a5292fee1ed83657bdd3e.jpg","thumb_url":"upload\/vod\/20251114-1\/458228de8fefa269fbb1e4b899003a27.jpg","sub_docquyen":false,"chieurap":false,"time":"37 ph\u00fat\/t\u1eadp","episode_current":"T\u1eadp 4","quality":"FHD","lang":"Vietsub","year":2025,"category":[{"id":"ba6fd52e5a3aca80eaaf1a3b50a182db","name":"H\u00e0i H\u01b0\u1edbc","slug":"hai-huoc"},{"id":"bb2b4b030608ca5984c8dd0770f5b40b","name":"T\u00ecnh C\u1ea3m","slug":"tinh-cam"},{"id":"a7b065b92ad356387ef2e075dee66529","name":"T\u00e2m L\u00fd","slug":"tam-ly"}],"country":[{"id":"05de95be5fc404da9680bbb3dd8262e6","name":"H\u00e0n Qu\u1ed1c","slug":"han-quoc"}]},{"tmdb":{"type":"tv","id":"157367","season":2,"vote_average":6.2,"vote_count":65},"imdb":{"id":null},"created":{"time":"2025-11-14T10:43:41.000Z"},"modified":{"time":"2025-11-14T10:43:41.000Z"},"_id":"e6489c47ee1a4c3252b06e7ed387eb90","name":"Palm Royale (Ph\u1ea7n 2)","slug":"palm-royale-phan-2","origin_name":"Palm Royale (Season 2)","type":"series","poster_url":"upload\/vod\/20251114-1\/5617b4f0dd65cde7f3f77522694b29f7.jpg","thumb_url":"upload\/vod\/20251114-1\/d4f640374857cb1ca469913c622ec1d7.jpg","sub_docquyen":false,"chieurap":false,"time":"55 ph\u00fat\/t\u1eadp","episode_current":"T\u1eadp 1","quality":"FHD","lang":"Vietsub","year":2025,"category":[{"id":"37a7b38b6184a5ebd3c43015aa20709d","name":"Ch\u00ednh K\u1ecbch","slug":"chinh-kich"},{"id":"ba6fd52e5a3aca80eaaf1a3b50a182db","name":"H\u00e0i H\u01b0\u1edbc","slug":"hai-huoc"},{"id":"a7b065b92ad356387ef2e075dee66529","name":"T\u00e2m L\u00fd","slug":"tam-ly"}],"country":[{"id":"74d9fa92f4dea9ecea8fc2233dc7921a","name":"\u00c2u M\u1ef9","slug":"au-my"}]},{"tmdb":{"type":"tv","id":"241576","season":2,"vote_average":10,"vote_count":1},"imdb":{"id":null},"created":{"time":"2025-11-14T10:11:54.000Z"},"modified":{"time":"2025-11-14T10:11:54.000Z"},"_id":"2320cc311e948c73c192f8b63d1ffab1","name":"N\u1ebfu Ta Ch\u01b0a T\u1eebng Th\u1ea5y Th\u00e1i D\u01b0\u01a1ng","slug":"neu-ta-chua-tung-thay-thai-duong","origin_name":"Had I Not Seen The Sun","type":"series","poster_url":"upload\/vod\/20251114-1\/693dec98ee9fcf4afcd8d04d44cfb282.jpg","thumb_url":"upload\/vod\/20251114-1\/9a162c4bb7bafc25165e6e396cae7db1.jpg","sub_docquyen":false,"chieurap":false,"time":"52 ph\u00fat\/t\u1eadp","episode_current":"Ho\u00e0n T\u1ea5t (10\/10)","quality":"FHD","lang":"Vietsub","year":2025,"category":[{"id":"7a035ac0b37f5854f0f6979260899c90","name":"H\u00ecnh S\u1ef1","slug":"hinh-su"},{"id":"37a7b38b6184a5ebd3c43015aa20709d","name":"Ch\u00ednh K\u1ecbch","slug":"chinh-kich"},{"id":"2fb53017b3be83cd754a08adab3e916c","name":"B\u00ed \u1ea8n","slug":"bi-an"},{"id":"a7b065b92ad356387ef2e075dee66529","name":"T\u00e2m L\u00fd","slug":"tam-ly"}],"country":[{"id":"af5f08b6445ca1def86fdd38cc1dc0b2","name":"\u0110a\u0300i Loan","slug":"dai-loan"}]},{"tmdb":{"type":"tv","id":"252193","season":1,"vote_average":9,"vote_count":5},"imdb":{"id":null},"created":{"time":"2025-11-14T10:06:05.000Z"},"modified":{"time":"2025-11-14T10:06:05.000Z"},"_id":"e52265108325dab81ab318b51c5c83a1","name":"Ikusagami: Chi\u1ebfn Th\u1ea7n Samurai","slug":"ikusagami-chien-than-samurai","origin_name":"Last Samurai Standing","type":"series","poster_url":"upload\/vod\/20251114-1\/d3b1d7283eec17538168c56a5f0a2792.jpg","thumb_url":"upload\/vod\/20251114-1\/c6e9b9ef7a25bd8cbee2cabb57895cf1.jpg","sub_docquyen":false,"chieurap":false,"time":"58 ph\u00fat\/t\u1eadp","episode_current":"Ho\u00e0n T\u1ea5t (6\/6)","quality":"FHD","lang":"Vietsub","year":2025,"category":[{"id":"9822be111d2ccc29c7172c78b8af8ff5","name":"H\u00e0nh \u0110\u1ed9ng","slug":"hanh-dong"},{"id":"66c78b23908113d478d8d85390a244b4","name":"Phi\u00eau L\u01b0u","slug":"phieu-luu"},{"id":"37a7b38b6184a5ebd3c43015aa20709d","name":"Ch\u00ednh K\u1ecbch","slug":"chinh-kich"},{"id":"a7b065b92ad356387ef2e075dee66529","name":"T\u00e2m L\u00fd","slug":"tam-ly"}],"country":[{"id":"d4097fbffa8f7149a61281437171eb83","name":"Nh\u1eadt B\u1ea3n","slug":"nhat-ban"}]},{"tmdb":{"type":null,"id":null,"season":null,"vote_average":0,"vote_count":0},"imdb":{"id":null},"created":{"time":"2025-11-14T09:46:17.000Z"},"modified":{"time":"2025-11-14T09:46:17.000Z"},"_id":"0c9aecd2692cfe28067bb0eba9ae409a","name":"\u0110\u00eam V\u1ea5n V\u01b0\u01a1ng (Phim Ng\u1eafn)","slug":"dem-van-vuong-phim-ngan","origin_name":"One Night Meant For Pure Love","type":"series","poster_url":"upload\/vod\/20251114-1\/6af7dbc89cb8c4a1a41fc53c2ca76838.jpg","thumb_url":"upload\/vod\/20251114-1\/37ed360818f0364446c1deef69636c3b.jpg","sub_docquyen":false,"chieurap":false,"time":"2 ph\u00fat\/t\u1eadp","episode_current":"Ho\u00e0n T\u1ea5t (50\/50)","quality":"FHD","lang":"Vietsub","year":2025,"category":[{"id":"37a7b38b6184a5ebd3c43015aa20709d","name":"Ch\u00ednh K\u1ecbch","slug":"chinh-kich"},{"id":"bb2b4b030608ca5984c8dd0770f5b40b","name":"T\u00ecnh C\u1ea3m","slug":"tinh-cam"},{"id":"a7b065b92ad356387ef2e075dee66529","name":"T\u00e2m L\u00fd","slug":"tam-ly"}],"country":[{"id":"b28b3d249312674db6cc7533cbbc2936","name":"Ha\u0300n Qu\u00f4\u0301c","slug":"han-quoc"}]},{"tmdb":{"type":"tv","id":"250504","season":1,"vote_average":9.667,"vote_count":3},"imdb":{"id":null},"created":{"time":"2025-11-14T09:39:52.000Z"},"modified":{"time":"2025-11-14T09:39:52.000Z"},"_id":"ef6f4e4fca9990a2896ea9cdf70fbe98","name":"Con Th\u00fa Trong T\u00f4i","slug":"con-thu-trong-toi","origin_name":"The Beast in Me","type":"series","poster_url":"upload\/vod\/20251114-1\/6152717bc872ffae12fca8be1c68544f.jpg","thumb_url":"upload\/vod\/20251114-1\/6074a6f0cab7c2d8e0d4d47efb62f383.jpg","sub_docquyen":false,"chieurap":false,"time":"53 ph\u00fat\/t\u1eadp","episode_current":"Ho\u00e0n T\u1ea5t (8\/8)","quality":"FHD","lang":"Vietsub","year":2025,"category":[{"id":"2fb53017b3be83cd754a08adab3e916c","name":"B\u00ed \u1ea8n","slug":"bi-an"},{"id":"37a7b38b6184a5ebd3c43015aa20709d","name":"Ch\u00ednh K\u1ecbch","slug":"chinh-kich"},{"id":"a7b065b92ad356387ef2e075dee66529","name":"T\u00e2m L\u00fd","slug":"tam-ly"}],"country":[{"id":"74d9fa92f4dea9ecea8fc2233dc7921a","name":"\u00c2u M\u1ef9","slug":"au-my"}]},{"tmdb":{"type":"tv","id":"304849","season":1,"vote_average":0,"vote_count":0},"imdb":{"id":null},"created":{"time":"2025-11-14T09:34:25.000Z"},"modified":{"time":"2025-11-14T09:34:25.000Z"},"_id":"f428ed8209a04774dd294d6dc12ae201","name":"50 Gi\u00e2y: V\u1ee5 \u00c1n Fernando B\u00e1ez Sosa","slug":"50-giay-vu-an-fernando-baez-sosa","origin_name":"50 Seconds: The Fernando B\u00e1ez Sosa Case","type":"series","poster_url":"upload\/vod\/20251114-1\/c61008a6f579dc11da86fe07ea9ce456.jpg","thumb_url":"upload\/vod\/20251114-1\/f2ec3c77927c511cf399d293e4f96c6a.jpg","sub_docquyen":false,"chieurap":false,"time":"43 ph\u00fat\/t\u1eadp","episode_current":"Ho\u00e0n T\u1ea5t (3\/3)","quality":"FHD","lang":"Vietsub","year":2025,"category":[{"id":"1645fa23fa33651cef84428b0dcc2130","name":"T\u00e0i Li\u1ec7u","slug":"tai-lieu"},{"id":"7a035ac0b37f5854f0f6979260899c90","name":"H\u00ecnh S\u1ef1","slug":"hinh-su"}],"country":[{"id":"8a40abac202ab3659bb98f71f05458d1","name":"T\u00e2y Ban Nha","slug":"tay-ban-nha"}]}],"params":{"type_slug":"danh-sach","filterCategory":[""],"filterCountry":[""],"filterYear":[""],"filterType":[""],"sortField":"year","sortType":"desc","pagination":{"totalItems":7294,"totalItemsPerPage":20,"currentPage":1,"totalPages":365}},"type_list":"phim-bo","APP_DOMAIN_FRONTEND":"https:\/\/phimapi.com","APP_DOMAIN_CDN_IMAGE":"https:\/\/phimimg.com"}}