{"status":true,"msg":"done","data":{"seoOnPage":{"og_type":"website","titleHead":"Phim l\u1ebb | Phim l\u1ebb hay tuy\u1ec3n ch\u1ecdn | Phim l\u1ebb m\u1edbi nh\u1ea5t 2025","descriptionHead":"Phim l\u1ebb m\u1edbi nh\u1ea5t tuy\u1ec3n ch\u1ecdn ch\u1ea5t l\u01b0\u1ee3ng cao, phim l\u1ebb tr\u1ecdn b\u1ed9 vietsub c\u1eadp nh\u1eadt nhanh nh\u1ea5t. Phim l\u1ebb vietsub nhanh nh\u1ea5t","og_image":["\/upload\/vod\/20251116-1\/c4c1f65755a2c851f7b72bffd3e7492d.jpg","\/upload\/vod\/20251116-1\/48fdff52b846f60cca103cad85abb9ca.jpg","\/upload\/vod\/20251115-1\/3476cc86653996c8e47b9340efa46390.jpg","\/upload\/vod\/20251115-1\/b13077263df7c56ddd868a4de8e995af.jpg","\/upload\/vod\/20251115-1\/bc4ef1e97cd05f6afd8ec1da6e5f82ca.jpg","\/upload\/vod\/20251115-1\/ee1302b9805ac7530fbe822f82beb8ae.jpg","\/upload\/vod\/20251115-1\/ddb60475b3a525d8f486b8338c7cf1f6.jpg","\/upload\/vod\/20251115-1\/5a0d605a7b315399bc6a19cea1946e01.jpg","\/upload\/vod\/20251115-1\/f0bc6c399a85df3cd689805dcaef12a0.jpg","\/upload\/vod\/20251114-1\/fbccab8899848b82a5e25eef00a3f6ba.jpg","\/upload\/vod\/20251114-1\/d404187a77844846f11f8f5073722cd0.jpg","\/upload\/vod\/20251114-1\/bc0d2311c775260785e1ca8a9be716c3.jpg","\/upload\/vod\/20251114-1\/711ddc1dcb457e0343f85fe245bac179.jpg","\/upload\/vod\/20251114-1\/46de4494c33ba2e08b98b8f2655d5807.jpg","\/upload\/vod\/20251113-1\/a52e316104473aae1c9eb0a2c7fdfffd.jpg","\/upload\/vod\/20251113-1\/6ffa8a4905e50e14c2edc93a458ff37b.jpg","\/upload\/vod\/20251113-1\/30ab8c3f1788a75788e7dbf4a9b5c6d6.jpg","\/upload\/vod\/20251113-1\/64e69998f6f1989db7857edc627e6a9b.jpg","\/upload\/vod\/20251113-1\/3c92ad8786dc8b0d260906d5496793d5.jpg","\/upload\/vod\/20251113-1\/aeaf89ad933471353f00caa9030070ab.jpg"],"og_url":"danh-sach\/phim-le"},"breadCrumb":[{"name":"Phim L\u1ebb","slug":"\/danh-sach\/phim-le","isCurrent":false,"position":2},{"name":"Trang 1","isCurrent":true,"position":3}],"titlePage":"Phim L\u1ebb","items":[{"tmdb":{"type":"movie","id":"1537560","season":null,"vote_average":9,"vote_count":4},"imdb":{"id":null},"created":{"time":"2025-11-16T17:40:15.000Z"},"modified":{"time":"2025-11-16T17:40:15.000Z"},"_id":"b0653afa5cfd29eca06d158e96115519","name":"Gi\u00e1ng Sinh Xuy\u00ean Th\u1eddi Gian","slug":"giang-sinh-xuyen-thoi-gian","origin_name":"A Newport Christmas","type":"single","poster_url":"upload\/vod\/20251116-1\/c4c1f65755a2c851f7b72bffd3e7492d.jpg","thumb_url":"upload\/vod\/20251116-1\/693b525370cf9d1bd5f860fb49d88203.jpg","sub_docquyen":false,"chieurap":false,"time":"84 ph\u00fat","episode_current":"Full","quality":"FHD","lang":"Vietsub","year":2025,"category":[{"id":"bb2b4b030608ca5984c8dd0770f5b40b","name":"T\u00ecnh C\u1ea3m","slug":"tinh-cam"},{"id":"68564911f00849030f9c9c144ea1b931","name":"Vi\u1ec5n T\u01b0\u1edfng","slug":"vien-tuong"},{"id":"a7b065b92ad356387ef2e075dee66529","name":"T\u00e2m L\u00fd","slug":"tam-ly"}],"country":[{"id":"74d9fa92f4dea9ecea8fc2233dc7921a","name":"\u00c2u M\u1ef9","slug":"au-my"}]},{"tmdb":{"type":"movie","id":"1196791","season":null,"vote_average":6.3,"vote_count":8},"imdb":{"id":null},"created":{"time":"2025-11-16T17:39:04.000Z"},"modified":{"time":"2025-11-16T17:39:04.000Z"},"_id":"381a4c3e139cd966cef9407ab2419a9a","name":"Ngh\u1ecb L\u1ef1c Ch\u00e1y B\u1ecfng","slug":"nghi-luc-chay-bong","origin_name":"Soul On Fire","type":"single","poster_url":"upload\/vod\/20251116-1\/48fdff52b846f60cca103cad85abb9ca.jpg","thumb_url":"upload\/vod\/20251116-1\/cfce6760318f12bf3c7c1ac96cbd00dd.jpg","sub_docquyen":false,"chieurap":false,"time":"111 ph\u00fat","episode_current":"Full","quality":"FHD","lang":"Vietsub","year":2025,"category":[{"id":"37a7b38b6184a5ebd3c43015aa20709d","name":"Ch\u00ednh K\u1ecbch","slug":"chinh-kich"},{"id":"bb2b4b030608ca5984c8dd0770f5b40b","name":"T\u00ecnh C\u1ea3m","slug":"tinh-cam"},{"id":"a7b065b92ad356387ef2e075dee66529","name":"T\u00e2m L\u00fd","slug":"tam-ly"}],"country":[{"id":"74d9fa92f4dea9ecea8fc2233dc7921a","name":"\u00c2u M\u1ef9","slug":"au-my"}]},{"tmdb":{"type":"movie","id":"4442","season":null,"vote_average":5.8,"vote_count":2848},"imdb":{"id":null},"created":{"time":"2025-11-15T17:04:54.000Z"},"modified":{"time":"2025-11-15T17:04:54.000Z"},"_id":"be2824848e53fe2e2d6015ff68ee7072","name":"Anh Em Nh\u00e0 Grimm","slug":"anh-em-nha-grimm","origin_name":"The Brothers Grimm","type":"single","poster_url":"upload\/vod\/20251115-1\/3476cc86653996c8e47b9340efa46390.jpg","thumb_url":"upload\/vod\/20251115-1\/c3ee6d55b789c56785937bd19eaaf68b.jpg","sub_docquyen":false,"chieurap":false,"time":"118 ph\u00fat","episode_current":"Full","quality":"FHD","lang":"Vietsub","year":2005,"category":[{"id":"66c78b23908113d478d8d85390a244b4","name":"Phi\u00eau L\u01b0u","slug":"phieu-luu"},{"id":"68564911f00849030f9c9c144ea1b931","name":"Vi\u1ec5n T\u01b0\u1edfng","slug":"vien-tuong"},{"id":"9822be111d2ccc29c7172c78b8af8ff5","name":"H\u00e0nh \u0110\u1ed9ng","slug":"hanh-dong"},{"id":"ba6fd52e5a3aca80eaaf1a3b50a182db","name":"H\u00e0i H\u01b0\u1edbc","slug":"hai-huoc"},{"id":"a7b065b92ad356387ef2e075dee66529","name":"T\u00e2m L\u00fd","slug":"tam-ly"},{"id":"37a7b38b6184a5ebd3c43015aa20709d","name":"Ch\u00ednh K\u1ecbch","slug":"chinh-kich"}],"country":[{"id":"74d9fa92f4dea9ecea8fc2233dc7921a","name":"\u00c2u M\u1ef9","slug":"au-my"}]},{"tmdb":{"type":"movie","id":"10314","season":null,"vote_average":6.316,"vote_count":2184},"imdb":{"id":null},"created":{"time":"2025-11-15T17:01:44.000Z"},"modified":{"time":"2025-11-15T17:01:44.000Z"},"_id":"731d1ffc634f4e5ac44b01592b12a0ad","name":"C\u00f4 \u1ea4y L\u00e0 V\u1eady","slug":"co-ay-la-vay","origin_name":"She&#039;s All That","type":"single","poster_url":"upload\/vod\/20251115-1\/b13077263df7c56ddd868a4de8e995af.jpg","thumb_url":"upload\/vod\/20251115-1\/43257f03717094bb671918812a83774b.jpg","sub_docquyen":false,"chieurap":false,"time":"95 ph\u00fat","episode_current":"Full","quality":"FHD","lang":"Vietsub","year":1999,"category":[{"id":"ba6fd52e5a3aca80eaaf1a3b50a182db","name":"H\u00e0i H\u01b0\u1edbc","slug":"hai-huoc"},{"id":"bb2b4b030608ca5984c8dd0770f5b40b","name":"T\u00ecnh C\u1ea3m","slug":"tinh-cam"},{"id":"a7b065b92ad356387ef2e075dee66529","name":"T\u00e2m L\u00fd","slug":"tam-ly"},{"id":"37a7b38b6184a5ebd3c43015aa20709d","name":"Ch\u00ednh K\u1ecbch","slug":"chinh-kich"}],"country":[{"id":"74d9fa92f4dea9ecea8fc2233dc7921a","name":"\u00c2u M\u1ef9","slug":"au-my"}]},{"tmdb":{"type":"movie","id":"1386792","season":null,"vote_average":1,"vote_count":1},"imdb":{"id":null},"created":{"time":"2025-11-15T16:41:29.000Z"},"modified":{"time":"2025-11-15T16:41:29.000Z"},"_id":"b1a5a84a3388b3f37634445bd1317047","name":"Lefter: C\u00e2u Chuy\u1ec7n C\u1ee7a Ordinarius","slug":"lefter-cau-chuyen-cua-ordinarius","origin_name":"Lefter: The Story Of The Ordinarius","type":"single","poster_url":"upload\/vod\/20251115-1\/bc4ef1e97cd05f6afd8ec1da6e5f82ca.jpg","thumb_url":"upload\/vod\/20251115-1\/448c5a9eb12a0773fbc20e140a5b0be2.jpg","sub_docquyen":false,"chieurap":false,"time":"126 ph\u00fat","episode_current":"Full","quality":"FHD","lang":"Vietsub","year":2025,"category":[{"id":"37a7b38b6184a5ebd3c43015aa20709d","name":"Ch\u00ednh K\u1ecbch","slug":"chinh-kich"},{"id":"f8ec3e9b77c509fdf64f0c387119b916","name":"L\u1ecbch S\u1eed","slug":"lich-su"},{"id":"a7b065b92ad356387ef2e075dee66529","name":"T\u00e2m L\u00fd","slug":"tam-ly"}],"country":[{"id":"dc655a18ab16bec3fe66b101d71fcb04","name":"Th\u00f4\u0309 Nhi\u0303 Ky\u0300","slug":"tho-nhi-ky"}]},{"tmdb":{"type":"movie","id":"1400780","season":null,"vote_average":7,"vote_count":2},"imdb":{"id":null},"created":{"time":"2025-11-15T16:40:07.000Z"},"modified":{"time":"2025-11-15T16:40:07.000Z"},"_id":"b76f966aceb7f0ff4e1e86f4c58b0393","name":"H\u00e3y Nh\u00ecn T\u00f4i D\u01b0\u1edbi \u00c1nh S\u00e1ng \u0110\u1eb9p Nh\u1ea5t","slug":"hay-nhin-toi-duoi-anh-sang-dep-nhat","origin_name":"Come See Me In The Good Light","type":"single","poster_url":"upload\/vod\/20251115-1\/ee1302b9805ac7530fbe822f82beb8ae.jpg","thumb_url":"upload\/vod\/20251115-1\/d74ebb3c4260769a5d9685e006d4e76c.jpg","sub_docquyen":false,"chieurap":false,"time":"109 ph\u00fat","episode_current":"Full","quality":"FHD","lang":"Vietsub","year":2025,"category":[{"id":"1645fa23fa33651cef84428b0dcc2130","name":"T\u00e0i Li\u1ec7u","slug":"tai-lieu"}],"country":[{"id":"74d9fa92f4dea9ecea8fc2233dc7921a","name":"\u00c2u M\u1ef9","slug":"au-my"}]},{"tmdb":{"type":"movie","id":"1117857","season":null,"vote_average":6.714,"vote_count":14},"imdb":{"id":null},"created":{"time":"2025-11-15T16:38:45.000Z"},"modified":{"time":"2025-11-16T00:15:44.000Z"},"_id":"6a81c377b5ba81a6b5dac8a2966178ea","name":"Cu\u1ed9c Phi\u00eau L\u01b0u Trong Gi\u1ea5c M\u1ed9ng","slug":"cuoc-phieu-luu-trong-giac-mong","origin_name":"In Your Dreams","type":"single","poster_url":"upload\/vod\/20251115-1\/ddb60475b3a525d8f486b8338c7cf1f6.jpg","thumb_url":"upload\/vod\/20251115-1\/4303b04b80bef55e576ec80353b80426.jpg","sub_docquyen":false,"chieurap":false,"time":"91 ph\u00fat","episode_current":"Full","quality":"FHD","lang":"Vietsub + L\u1ed3ng Ti\u1ebfng + Thuy\u1ebft Minh","year":2025,"category":[{"id":"a2492d6cbc4d58f115406ca14e5ec7b6","name":"Gia \u0110\u00ecnh","slug":"gia-dinh"},{"id":"ba6fd52e5a3aca80eaaf1a3b50a182db","name":"H\u00e0i H\u01b0\u1edbc","slug":"hai-huoc"},{"id":"66c78b23908113d478d8d85390a244b4","name":"Phi\u00eau L\u01b0u","slug":"phieu-luu"},{"id":"68564911f00849030f9c9c144ea1b931","name":"Vi\u1ec5n T\u01b0\u1edfng","slug":"vien-tuong"},{"id":"a7b065b92ad356387ef2e075dee66529","name":"T\u00e2m L\u00fd","slug":"tam-ly"}],"country":[{"id":"74d9fa92f4dea9ecea8fc2233dc7921a","name":"\u00c2u M\u1ef9","slug":"au-my"}]},{"tmdb":{"type":"movie","id":"1568147","season":null,"vote_average":0,"vote_count":0},"imdb":{"id":null},"created":{"time":"2025-11-15T16:37:20.000Z"},"modified":{"time":"2025-11-15T16:37:20.000Z"},"_id":"aa2bd246addcc5892184bdf6ba9580ce","name":"B\u00ecnh Y\u00eau Truy\u1ec7n: S\u1ee9 M\u1ec7nh Tri\u1ec7u Ho\u00e1n","slug":"binh-yeu-truyen-su-menh-trieu-hoan","origin_name":"The Demon Wardens: Convergence Of Souls","type":"single","poster_url":"upload\/vod\/20251115-1\/5a0d605a7b315399bc6a19cea1946e01.jpg","thumb_url":"upload\/vod\/20251115-1\/7dc87d90f7325d81f7e2421eaf9e6561.jpg","sub_docquyen":false,"chieurap":false,"time":"94 ph\u00fat","episode_current":"Full","quality":"FHD","lang":"Vietsub","year":2025,"category":[{"id":"2fb53017b3be83cd754a08adab3e916c","name":"B\u00ed \u1ea8n","slug":"bi-an"},{"id":"66c78b23908113d478d8d85390a244b4","name":"Phi\u00eau L\u01b0u","slug":"phieu-luu"},{"id":"68564911f00849030f9c9c144ea1b931","name":"Vi\u1ec5n T\u01b0\u1edfng","slug":"vien-tuong"},{"id":"a7b065b92ad356387ef2e075dee66529","name":"T\u00e2m L\u00fd","slug":"tam-ly"},{"id":"3a17c7283b71fa84e5a8d76fb790ed3e","name":"C\u1ed5 Trang","slug":"co-trang"}],"country":[{"id":"92aa3c93de523a414a520399bb6a4304","name":"Trung Qu\u00f4\u0301c","slug":"trung-quoc"}]},{"tmdb":{"type":"movie","id":"1556390","season":null,"vote_average":0,"vote_count":0},"imdb":{"id":null},"created":{"time":"2025-11-15T16:34:05.000Z"},"modified":{"time":"2025-11-15T16:34:05.000Z"},"_id":"086c98cd8fcd5da4d44864f9b3c7c2fa","name":"\u00c1m Chi\u1ebfn 1931: B\u1ea1ch \u1ea4t H\u00f3a","slug":"am-chien-1931-bach-at-hoa","origin_name":"1931 Hidden War The Hero Bai Yihua","type":"single","poster_url":"upload\/vod\/20251115-1\/f0bc6c399a85df3cd689805dcaef12a0.jpg","thumb_url":"upload\/vod\/20251115-1\/562a16781a03c7b8126cf8e3e1558c3e.jpg","sub_docquyen":false,"chieurap":false,"time":"84 ph\u00fat","episode_current":"Full","quality":"FHD","lang":"Vietsub","year":2025,"category":[{"id":"1bae5183d681b7649f9bf349177f7123","name":"Chi\u1ebfn Tranh","slug":"chien-tranh"},{"id":"37a7b38b6184a5ebd3c43015aa20709d","name":"Ch\u00ednh K\u1ecbch","slug":"chinh-kich"},{"id":"a7b065b92ad356387ef2e075dee66529","name":"T\u00e2m L\u00fd","slug":"tam-ly"}],"country":[{"id":"3e075636c731fe0f889c69e0bf82c083","name":"Trung Qu\u1ed1c","slug":"trung-quoc"}]},{"tmdb":{"type":"movie","id":"1551","season":null,"vote_average":6.496,"vote_count":1644},"imdb":{"id":null},"created":{"time":"2025-11-14T17:42:55.000Z"},"modified":{"time":"2025-11-14T17:43:08.000Z"},"_id":"57c2380d5c0be43f6c952835e58f7a55","name":"Tr\u1ea3i Nghi\u1ec7m \u0110i\u1ec3m Ch\u1ebft","slug":"trai-nghiem-diem-chet-1990","origin_name":"Flatliners","type":"single","poster_url":"upload\/vod\/20251114-1\/fbccab8899848b82a5e25eef00a3f6ba.jpg","thumb_url":"upload\/vod\/20251114-1\/93c93807ef1f8a7c73bd27c9d84ffc98.jpg","sub_docquyen":false,"chieurap":false,"time":"115 ph\u00fat","episode_current":"Full","quality":"FHD","lang":"Vietsub","year":1990,"category":[{"id":"37a7b38b6184a5ebd3c43015aa20709d","name":"Ch\u00ednh K\u1ecbch","slug":"chinh-kich"},{"id":"0bcf4077916678de9b48c89221fcf8ae","name":"Khoa H\u1ecdc","slug":"khoa-hoc"},{"id":"68564911f00849030f9c9c144ea1b931","name":"Vi\u1ec5n T\u01b0\u1edfng","slug":"vien-tuong"},{"id":"4db8d7d4b9873981e3eeb76d02997d58","name":"Kinh D\u1ecb","slug":"kinh-di"}],"country":[{"id":"74d9fa92f4dea9ecea8fc2233dc7921a","name":"\u00c2u M\u1ef9","slug":"au-my"}]},{"tmdb":{"type":"movie","id":"3604","season":null,"vote_average":6.232,"vote_count":1037},"imdb":{"id":null},"created":{"time":"2025-11-14T17:42:13.000Z"},"modified":{"time":"2025-11-14T17:42:59.000Z"},"_id":"352decc1e8f3d97fcdb53af60cbe1f53","name":"Flash Gordon","slug":"flash-gordon","origin_name":"Flash Gordon","type":"single","poster_url":"upload\/vod\/20251114-1\/d404187a77844846f11f8f5073722cd0.jpg","thumb_url":"upload\/vod\/20251114-1\/b6ab3294d9769d04997d87ec6cace302.jpg","sub_docquyen":false,"chieurap":false,"time":"111 ph\u00fat","episode_current":"Full","quality":"FHD","lang":"Vietsub","year":1980,"category":[{"id":"0bcf4077916678de9b48c89221fcf8ae","name":"Khoa H\u1ecdc","slug":"khoa-hoc"},{"id":"68564911f00849030f9c9c144ea1b931","name":"Vi\u1ec5n T\u01b0\u1edfng","slug":"vien-tuong"},{"id":"66c78b23908113d478d8d85390a244b4","name":"Phi\u00eau L\u01b0u","slug":"phieu-luu"},{"id":"9822be111d2ccc29c7172c78b8af8ff5","name":"H\u00e0nh \u0110\u1ed9ng","slug":"hanh-dong"}],"country":[{"id":"74d9fa92f4dea9ecea8fc2233dc7921a","name":"\u00c2u M\u1ef9","slug":"au-my"}]},{"tmdb":{"type":"movie","id":"577533","season":null,"vote_average":6.009,"vote_count":53},"imdb":{"id":null},"created":{"time":"2025-11-14T17:03:05.000Z"},"modified":{"time":"2025-11-14T17:38:23.000Z"},"_id":"1fe37085233f04789c85afa0a8b3f7b3","name":"Ho\u1ea1t \u0110\u1ed9ng Ngo\u1ea1i Kh\u00f3a","slug":"hoat-dong-ngoai-khoa-2019","origin_name":"Extracurricular Activities","type":"single","poster_url":"upload\/vod\/20251114-1\/bc0d2311c775260785e1ca8a9be716c3.jpg","thumb_url":"upload\/vod\/20251114-1\/74881b4de9183d974b22eafd1a61354e.jpg","sub_docquyen":false,"chieurap":false,"time":"86 ph\u00fat","episode_current":"Full","quality":"FHD","lang":"Vietsub","year":2019,"category":[{"id":"ba6fd52e5a3aca80eaaf1a3b50a182db","name":"H\u00e0i H\u01b0\u1edbc","slug":"hai-huoc"},{"id":"bb2b4b030608ca5984c8dd0770f5b40b","name":"T\u00ecnh C\u1ea3m","slug":"tinh-cam"},{"id":"37a7b38b6184a5ebd3c43015aa20709d","name":"Ch\u00ednh K\u1ecbch","slug":"chinh-kich"},{"id":"a7b065b92ad356387ef2e075dee66529","name":"T\u00e2m L\u00fd","slug":"tam-ly"}],"country":[{"id":"74d9fa92f4dea9ecea8fc2233dc7921a","name":"\u00c2u M\u1ef9","slug":"au-my"}]},{"tmdb":{"type":"movie","id":"1429738","season":null,"vote_average":10,"vote_count":1},"imdb":{"id":null},"created":{"time":"2025-11-14T17:01:13.000Z"},"modified":{"time":"2025-11-14T17:39:16.000Z"},"_id":"4a3f8e93a3de2a2650a129d7fa060bb4","name":"Tee Yai: T\u00ednh B\u1ea3n \u00c1c","slug":"tee-yai-tinh-ban-ac","origin_name":"Tee Yai: Born To Be Bad","type":"single","poster_url":"upload\/vod\/20251114-1\/711ddc1dcb457e0343f85fe245bac179.jpg","thumb_url":"upload\/vod\/20251114-1\/b5695101bf0c896a0bf3800fd0a500ef.jpg","sub_docquyen":false,"chieurap":false,"time":"117 ph\u00fat","episode_current":"Full","quality":"FHD","lang":"Vietsub + Thuy\u1ebft Minh","year":2025,"category":[{"id":"7a035ac0b37f5854f0f6979260899c90","name":"H\u00ecnh S\u1ef1","slug":"hinh-su"},{"id":"9822be111d2ccc29c7172c78b8af8ff5","name":"H\u00e0nh \u0110\u1ed9ng","slug":"hanh-dong"},{"id":"37a7b38b6184a5ebd3c43015aa20709d","name":"Ch\u00ednh K\u1ecbch","slug":"chinh-kich"},{"id":"a7b065b92ad356387ef2e075dee66529","name":"T\u00e2m L\u00fd","slug":"tam-ly"}],"country":[{"id":"cefbf1640a17bad1e13c2f6f2a811a2d","name":"Th\u00e1i Lan","slug":"thai-lan"}]},{"tmdb":{"type":"movie","id":"1054867","season":null,"vote_average":7.691,"vote_count":1157},"imdb":{"id":null},"created":{"time":"2025-11-14T14:33:12.000Z"},"modified":{"time":"2025-11-16T00:15:21.000Z"},"_id":"258d7a491108e4e48af85b904cef4654","name":"Tr\u1eadn Chi\u1ebfn Sau Tr\u1eadn Chi\u1ebfn","slug":"tran-chien-sau-tran-chien","origin_name":"One Battle After Another","type":"single","poster_url":"upload\/vod\/20251114-1\/46de4494c33ba2e08b98b8f2655d5807.jpg","thumb_url":"upload\/vod\/20251114-1\/f095691601af7a5284c918999b50fcf3.jpg","sub_docquyen":false,"chieurap":true,"time":"162 ph\u00fat","episode_current":"Full","quality":"FHD","lang":"Vietsub + Thuy\u1ebft Minh","year":2025,"category":[{"id":"9822be111d2ccc29c7172c78b8af8ff5","name":"H\u00e0nh \u0110\u1ed9ng","slug":"hanh-dong"},{"id":"a7b065b92ad356387ef2e075dee66529","name":"T\u00e2m L\u00fd","slug":"tam-ly"},{"id":"7a035ac0b37f5854f0f6979260899c90","name":"H\u00ecnh S\u1ef1","slug":"hinh-su"},{"id":"37a7b38b6184a5ebd3c43015aa20709d","name":"Ch\u00ednh K\u1ecbch","slug":"chinh-kich"}],"country":[{"id":"74d9fa92f4dea9ecea8fc2233dc7921a","name":"\u00c2u M\u1ef9","slug":"au-my"}]},{"tmdb":{"type":"movie","id":"1522923","season":null,"vote_average":7,"vote_count":23},"imdb":{"id":null},"created":{"time":"2025-11-13T16:16:28.000Z"},"modified":{"time":"2025-11-14T17:47:23.000Z"},"_id":"990c7ce9f046359dac66324e418e8e62","name":"Ng\u00f4i Nh\u00e0 An To\u00e0n","slug":"ngoi-nha-an-toan","origin_name":"Safe House","type":"single","poster_url":"upload\/vod\/20251113-1\/a52e316104473aae1c9eb0a2c7fdfffd.jpg","thumb_url":"upload\/vod\/20251113-1\/cd811a72c694c4557cd8f34fb61ca9cf.jpg","sub_docquyen":false,"chieurap":false,"time":"90 ph\u00fat","episode_current":"Full","quality":"FHD","lang":"Vietsub + Thuy\u1ebft Minh","year":2025,"category":[{"id":"9822be111d2ccc29c7172c78b8af8ff5","name":"H\u00e0nh \u0110\u1ed9ng","slug":"hanh-dong"},{"id":"a7b065b92ad356387ef2e075dee66529","name":"T\u00e2m L\u00fd","slug":"tam-ly"},{"id":"37a7b38b6184a5ebd3c43015aa20709d","name":"Ch\u00ednh K\u1ecbch","slug":"chinh-kich"}],"country":[{"id":"74d9fa92f4dea9ecea8fc2233dc7921a","name":"\u00c2u M\u1ef9","slug":"au-my"}]},{"tmdb":{"type":"movie","id":"1401318","season":null,"vote_average":7.393,"vote_count":14},"imdb":{"id":null},"created":{"time":"2025-11-13T16:15:23.000Z"},"modified":{"time":"2025-11-13T16:15:23.000Z"},"_id":"8ee15923664a1ff58e5f7fddfdb91679","name":"Gi\u00e1ng Sinh C\u00f9ng Ex","slug":"giang-sinh-cung-ex","origin_name":"A Merry Little Ex-Mas","type":"single","poster_url":"upload\/vod\/20251113-1\/6ffa8a4905e50e14c2edc93a458ff37b.jpg","thumb_url":"upload\/vod\/20251113-1\/fbf37bdba861a78564ad4637b11e4ca6.jpg","sub_docquyen":false,"chieurap":false,"time":"91 ph\u00fat","episode_current":"Full","quality":"FHD","lang":"Vietsub","year":2025,"category":[{"id":"bb2b4b030608ca5984c8dd0770f5b40b","name":"T\u00ecnh C\u1ea3m","slug":"tinh-cam"},{"id":"ba6fd52e5a3aca80eaaf1a3b50a182db","name":"H\u00e0i H\u01b0\u1edbc","slug":"hai-huoc"},{"id":"a7b065b92ad356387ef2e075dee66529","name":"T\u00e2m L\u00fd","slug":"tam-ly"},{"id":"37a7b38b6184a5ebd3c43015aa20709d","name":"Ch\u00ednh K\u1ecbch","slug":"chinh-kich"}],"country":[{"id":"74d9fa92f4dea9ecea8fc2233dc7921a","name":"\u00c2u M\u1ef9","slug":"au-my"}]},{"tmdb":{"type":"movie","id":"1564346","season":null,"vote_average":9,"vote_count":3},"imdb":{"id":null},"created":{"time":"2025-11-13T16:11:13.000Z"},"modified":{"time":"2025-11-13T16:11:13.000Z"},"_id":"96c49aec2bd7b939892e5b18bc6369b1","name":"Elo\u00e1 Pimentel: Con Tin Tr\u00ean Truy\u1ec1n H\u00ecnh Tr\u1ef1c Ti\u1ebfp","slug":"eloa-pimentel-con-tin-tren-truyen-hinh-truc-tiep","origin_name":"Elo\u00e1 The Hostage: Live On TV","type":"single","poster_url":"upload\/vod\/20251113-1\/30ab8c3f1788a75788e7dbf4a9b5c6d6.jpg","thumb_url":"upload\/vod\/20251113-1\/1760d50c4a28f12abf16c1194928dc7c.jpg","sub_docquyen":false,"chieurap":false,"time":"85 ph\u00fat","episode_current":"Full","quality":"FHD","lang":"Vietsub","year":2025,"category":[{"id":"1645fa23fa33651cef84428b0dcc2130","name":"T\u00e0i Li\u1ec7u","slug":"tai-lieu"},{"id":"7a035ac0b37f5854f0f6979260899c90","name":"H\u00ecnh S\u1ef1","slug":"hinh-su"}],"country":[{"id":"42537f0fb56e31e20ab9c2305752087d","name":"Brazil","slug":"brazil"}]},{"tmdb":{"type":"movie","id":"1426518","season":null,"vote_average":6.9,"vote_count":6},"imdb":{"id":null},"created":{"time":"2025-11-13T16:10:07.000Z"},"modified":{"time":"2025-11-13T16:10:07.000Z"},"_id":"a73d731082fabe880672f123d4b3dcfe","name":"\u0110\u1eddi C\u1ee7a Eddie","slug":"doi-cua-eddie","origin_name":"Being Eddie","type":"single","poster_url":"upload\/vod\/20251113-1\/64e69998f6f1989db7857edc627e6a9b.jpg","thumb_url":"upload\/vod\/20251113-1\/988933cb81e7e48ff36b722e44e55a2e.jpg","sub_docquyen":false,"chieurap":false,"time":"103 ph\u00fat","episode_current":"Full","quality":"FHD","lang":"Vietsub","year":2025,"category":[{"id":"1645fa23fa33651cef84428b0dcc2130","name":"T\u00e0i Li\u1ec7u","slug":"tai-lieu"}],"country":[{"id":"74d9fa92f4dea9ecea8fc2233dc7921a","name":"\u00c2u M\u1ef9","slug":"au-my"}]},{"tmdb":{"type":"movie","id":"731169","season":null,"vote_average":6,"vote_count":5},"imdb":{"id":null},"created":{"time":"2025-11-13T16:09:03.000Z"},"modified":{"time":"2025-11-13T16:09:03.000Z"},"_id":"2da25054a079d631e04b67bb7d7b5bd6","name":"Alice Tr\u0103ng R\u1eb1m","slug":"alice-trang-ram","origin_name":"Oversize Love","type":"single","poster_url":"upload\/vod\/20251113-1\/3c92ad8786dc8b0d260906d5496793d5.jpg","thumb_url":"upload\/vod\/20251113-1\/c8b7db1e91f3f238419375270bc69b19.jpg","sub_docquyen":false,"chieurap":false,"time":"103 ph\u00fat","episode_current":"Full","quality":"FHD","lang":"Vietsub + Thuy\u1ebft Minh","year":2020,"category":[{"id":"bb2b4b030608ca5984c8dd0770f5b40b","name":"T\u00ecnh C\u1ea3m","slug":"tinh-cam"},{"id":"ba6fd52e5a3aca80eaaf1a3b50a182db","name":"H\u00e0i H\u01b0\u1edbc","slug":"hai-huoc"},{"id":"a7b065b92ad356387ef2e075dee66529","name":"T\u00e2m L\u00fd","slug":"tam-ly"},{"id":"37a7b38b6184a5ebd3c43015aa20709d","name":"Ch\u00ednh K\u1ecbch","slug":"chinh-kich"}],"country":[{"id":"3e075636c731fe0f889c69e0bf82c083","name":"Trung Qu\u1ed1c","slug":"trung-quoc"}]},{"tmdb":{"type":"movie","id":"1242419","season":null,"vote_average":7.296,"vote_count":98},"imdb":{"id":null},"created":{"time":"2025-11-13T10:38:07.000Z"},"modified":{"time":"2025-11-13T10:38:07.000Z"},"_id":"3a4f2a43162106f67b1d40af656e4f5c","name":"G\u00e3 Tr\u1ed9m Tr\u00ean Tr\u1eddi R\u01a1i Xu\u1ed1ng","slug":"ga-trom-tren-troi-roi-xuong","origin_name":"Roofman","type":"single","poster_url":"upload\/vod\/20251113-1\/aeaf89ad933471353f00caa9030070ab.jpg","thumb_url":"upload\/vod\/20251113-1\/edafa69868a7d1ff7d0b81ede2e9bdf6.jpg","sub_docquyen":false,"chieurap":false,"time":"126 ph\u00fat","episode_current":"Full","quality":"FHD","lang":"Vietsub","year":2025,"category":[{"id":"ba6fd52e5a3aca80eaaf1a3b50a182db","name":"H\u00e0i H\u01b0\u1edbc","slug":"hai-huoc"},{"id":"37a7b38b6184a5ebd3c43015aa20709d","name":"Ch\u00ednh K\u1ecbch","slug":"chinh-kich"},{"id":"7a035ac0b37f5854f0f6979260899c90","name":"H\u00ecnh S\u1ef1","slug":"hinh-su"},{"id":"a7b065b92ad356387ef2e075dee66529","name":"T\u00e2m L\u00fd","slug":"tam-ly"}],"country":[{"id":"74d9fa92f4dea9ecea8fc2233dc7921a","name":"\u00c2u M\u1ef9","slug":"au-my"}]}],"params":{"type_slug":"danh-sach","filterCategory":[""],"filterCountry":[""],"filterYear":[""],"filterType":[""],"sortField":"_id","sortType":"desc","pagination":{"totalItems":14771,"totalItemsPerPage":20,"currentPage":1,"totalPages":739}},"type_list":"phim-le","APP_DOMAIN_FRONTEND":"https:\/\/phimapi.com","APP_DOMAIN_CDN_IMAGE":"https:\/\/phimimg.com"}}