{"status":"success","msg":"done","data":{"seoOnPage":{"og_type":"website","titleHead":"Phim t\u00f4 | t\u00f4 vietsub | Phim t\u00f4 hay | Tuy\u1ec3n t\u1eadp t\u00f4 m\u1edbi nh\u1ea5t 2025","descriptionHead":"Phim t\u00f4 hay tuy\u1ec3n t\u1eadp, phim t\u00f4 m\u1edbi nh\u1ea5t, t\u1ed5ng h\u1ee3p phim t\u00f4, t\u00f4 full HD, t\u00f4 vietsub, xem t\u00f4 online","og_image":["\/upload\/vod\/20251013-1\/768af16e154b1c99bcef2b4c5ec43750.jpg","\/upload\/vod\/20251012-1\/d4699ed181d717215a974193527143e4.jpg","\/upload\/vod\/20251116-1\/1dfa124b40b4c2cc708df151fcc67268.jpg","\/upload\/vod\/20251116-1\/1ab0292dba1816075e1d0d8d7f1705ef.jpg","\/upload\/vod\/20251116-1\/6dce7def695f9ee63b0183ad624da89b.jpg"],"og_url":"tim-kiem?keyword=t\u00f4"},"breadCrumb":[{"name":"T\u00ecm ki\u1ebfm t\u1eeb kh\u00f3a: t\u00f4 - Trang 1","isCurrent":true,"position":2}],"titlePage":"T\u00ecm ki\u1ebfm t\u1eeb kh\u00f3a: t\u00f4","items":[{"tmdb":{"type":"tv","id":"297517","season":1,"vote_average":0,"vote_count":0},"imdb":{"id":null},"created":{"time":"2025-10-13T17:33:41.000Z"},"modified":{"time":"2025-11-16T23:35:12.000Z"},"_id":"a2be3baee3bcf8792aab206b21ad7f69","name":"Gia T\u1ed9c Huy Ho\u00e0ng","slug":"gia-toc-huy-hoang","origin_name":"The Royal Family","type":"series","poster_url":"upload\/vod\/20251013-1\/768af16e154b1c99bcef2b4c5ec43750.jpg","thumb_url":"upload\/vod\/20251013-1\/04736f37c3ec481379ca4313df81a350.jpg","sub_docquyen":false,"chieurap":false,"time":"59 ph\u00fat\/t\u1eadp","episode_current":"T\u1eadp 6","quality":"FHD","lang":"Vietsub","year":2025,"category":[{"id":"37a7b38b6184a5ebd3c43015aa20709d","name":"Ch\u00ednh K\u1ecbch","slug":"chinh-kich"},{"id":"a7b065b92ad356387ef2e075dee66529","name":"T\u00e2m L\u00fd","slug":"tam-ly"}],"country":[{"id":"d4097fbffa8f7149a61281437171eb83","name":"Nh\u1eadt B\u1ea3n","slug":"nhat-ban"}]},{"tmdb":{"type":"tv","id":"280946","season":1,"vote_average":0,"vote_count":0},"imdb":{"id":null},"created":{"time":"2025-10-11T23:50:45.000Z"},"modified":{"time":"2025-11-16T23:26:15.000Z"},"_id":"8074ea1e919ed5dc154c7fe6f1a2e212","name":"Gia \u0110\u00ecnh B\u00e3o T\u1ed1","slug":"gia-dinh-bao-to-2025","origin_name":"Typhoon Family","type":"series","poster_url":"upload\/vod\/20251012-1\/d4699ed181d717215a974193527143e4.jpg","thumb_url":"upload\/vod\/20251012-1\/a9db72672fdad74eb490d763bd92ecfa.jpg","sub_docquyen":false,"chieurap":false,"time":"76 ph\u00fat\/t\u1eadp","episode_current":"T\u1eadp 12","quality":"FHD","lang":"Vietsub + Thuy\u1ebft Minh","year":2025,"category":[{"id":"37a7b38b6184a5ebd3c43015aa20709d","name":"Ch\u00ednh K\u1ecbch","slug":"chinh-kich"},{"id":"bb2b4b030608ca5984c8dd0770f5b40b","name":"T\u00ecnh C\u1ea3m","slug":"tinh-cam"},{"id":"a7b065b92ad356387ef2e075dee66529","name":"T\u00e2m L\u00fd","slug":"tam-ly"}],"country":[{"id":"05de95be5fc404da9680bbb3dd8262e6","name":"H\u00e0n Qu\u1ed1c","slug":"han-quoc"}]},{"tmdb":{"type":"tv","id":"87508","season":3,"vote_average":7.836,"vote_count":113},"imdb":{"id":null},"created":{"time":"2025-11-16T17:59:25.000Z"},"modified":{"time":"2025-11-16T17:59:25.000Z"},"_id":"c1481a88d8e582ce58f9413d5ac93360","name":"T\u1ed9i \u00c1c Delhi (Ph\u1ea7n 3)","slug":"toi-ac-delhi-phan-3","origin_name":"Delhi Crime","type":"series","poster_url":"upload\/vod\/20251116-1\/1dfa124b40b4c2cc708df151fcc67268.jpg","thumb_url":"upload\/vod\/20251116-1\/35e314c4706f713aba8692e6b113a37a.jpg","sub_docquyen":false,"chieurap":false,"time":"51 ph\u00fat\/t\u1eadp","episode_current":"Ho\u00e0n T\u1ea5t (6\/6)","quality":"FHD","lang":"Vietsub","year":2025,"category":[{"id":"7a035ac0b37f5854f0f6979260899c90","name":"H\u00ecnh S\u1ef1","slug":"hinh-su"},{"id":"37a7b38b6184a5ebd3c43015aa20709d","name":"Ch\u00ednh K\u1ecbch","slug":"chinh-kich"},{"id":"a7b065b92ad356387ef2e075dee66529","name":"T\u00e2m L\u00fd","slug":"tam-ly"}],"country":[{"id":"445d337b5cd5de476f99333df6b0c2a7","name":"Canada","slug":"canada"},{"id":"aadd510492662beef1a980624b26c685","name":"\u1ea4n \u0110\u1ed9","slug":"an-do"},{"id":"74d9fa92f4dea9ecea8fc2233dc7921a","name":"\u00c2u M\u1ef9","slug":"au-my"}]},{"tmdb":{"type":"tv","id":"87508","season":3,"vote_average":7.836,"vote_count":113},"imdb":{"id":null},"created":{"time":"2023-12-07T22:00:26.000Z"},"modified":{"time":"2025-11-16T17:58:04.000Z"},"_id":"687fe34a901a03abed262a62e22f90db","name":"T\u1ed9i \u00c1c Delhi (Ph\u1ea7n 2)","slug":"toi-ac-delhi-phan-2","origin_name":"Delhi Crime (Season 2)","type":"series","poster_url":"upload\/vod\/20251116-1\/1ab0292dba1816075e1d0d8d7f1705ef.jpg","thumb_url":"upload\/vod\/20251116-1\/982a06b94a9055c86df51555c33d8bab.jpg","sub_docquyen":false,"chieurap":false,"time":"51 ph\u00fat\/t\u1eadp","episode_current":"Ho\u00e0n T\u1ea5t (5\/5)","quality":"FHD","lang":"Vietsub","year":2022,"category":[{"id":"7a035ac0b37f5854f0f6979260899c90","name":"H\u00ecnh S\u1ef1","slug":"hinh-su"},{"id":"a7b065b92ad356387ef2e075dee66529","name":"T\u00e2m L\u00fd","slug":"tam-ly"},{"id":"37a7b38b6184a5ebd3c43015aa20709d","name":"Ch\u00ednh K\u1ecbch","slug":"chinh-kich"}],"country":[{"id":"445d337b5cd5de476f99333df6b0c2a7","name":"Canada","slug":"canada"},{"id":"aadd510492662beef1a980624b26c685","name":"\u1ea4n \u0110\u1ed9","slug":"an-do"},{"id":"74d9fa92f4dea9ecea8fc2233dc7921a","name":"\u00c2u M\u1ef9","slug":"au-my"}]},{"tmdb":{"type":"tv","id":"87508","season":3,"vote_average":7.836,"vote_count":113},"imdb":{"id":null},"created":{"time":"2025-01-16T00:47:24.000Z"},"modified":{"time":"2025-11-16T17:56:27.000Z"},"_id":"358eabeadbcb172e3e49ac722b445fea","name":"T\u1ed9i \u00c1c Delhi (Ph\u1ea7n 1)","slug":"toi-ac-delhi-phan-1","origin_name":"Delhi Crime (Season 1)","type":"series","poster_url":"upload\/vod\/20251116-1\/6dce7def695f9ee63b0183ad624da89b.jpg","thumb_url":"upload\/vod\/20251116-1\/9a11e8b870ab6682d12768d24ba20bb2.jpg","sub_docquyen":false,"chieurap":false,"time":"51 ph\u00fat\/t\u1eadp","episode_current":"Ho\u00e0n T\u1ea5t (7\/7)","quality":"FHD","lang":"Vietsub","year":2019,"category":[{"id":"7a035ac0b37f5854f0f6979260899c90","name":"H\u00ecnh S\u1ef1","slug":"hinh-su"},{"id":"a7b065b92ad356387ef2e075dee66529","name":"T\u00e2m L\u00fd","slug":"tam-ly"},{"id":"37a7b38b6184a5ebd3c43015aa20709d","name":"Ch\u00ednh K\u1ecbch","slug":"chinh-kich"}],"country":[{"id":"445d337b5cd5de476f99333df6b0c2a7","name":"Canada","slug":"canada"},{"id":"aadd510492662beef1a980624b26c685","name":"\u1ea4n \u0110\u1ed9","slug":"an-do"},{"id":"74d9fa92f4dea9ecea8fc2233dc7921a","name":"\u00c2u M\u1ef9","slug":"au-my"}]}],"params":{"type_slug":"tim-kiem","keyword":"t\u00f4","filterCategory":[""],"filterCountry":[""],"filterYear":[""],"filterType":[""],"sortField":"modified.time","sortType":"desc","pagination":{"totalItems":3499,"totalItemsPerPage":5,"currentPage":1,"totalPages":700}},"type_list":"","APP_DOMAIN_FRONTEND":"https:\/\/phimapi.com","APP_DOMAIN_CDN_IMAGE":"https:\/\/phimimg.com"}}